cd /Users/nikolatodorovic/src
pull
cd /Users/nikolatodorovic/src
cd Downloads/
ls
cd VW-DAQRI-SmartHelmet-PoC
ls
cd Assets/DAQRI/System/Deploy/OSX
ls
ls -l
sudo chmod 755 daqri_bridge
ls -l
cd /Users/nikolatodorovic/src
ls
cd Node\ Drop
ls
scp Node_Drop.dqz dev@10.16.16.246/~
scp Node_Drop.dqz dev@10.16.16.246:/~
scp Node_Drop.dqz dev@10.16.16.246:/~
scp Node_Drop.dqz dev@10.16.16.246:~/
sudo apt install ./Node_Drop.dqz
ssh dev@10.16.16.246
ssh dev@10.16.16.246
sudo chmod 755 daqri_bridge
ssh dev@10.16.16.246
git
source
sourcetree
git
cd /Users/nikolatodorovic
cd Node\ Drop
cd assets
git commit
ls
git add LookFollow.cs
git commit -m "First commit"
git push
