<?xml version="1.0" encoding="UTF-8"?>
<COLLADA xmlns="http://www.collada.org/2005/11/COLLADASchema" version="1.4.1">
	<asset>
		<contributor>
			<author>Colin</author>
			<authoring_tool>Jt2Collada</authoring_tool>
			<copyright>Copyright 2011 Siemens Product Lifecycle Management Software Inc. All Rights Reserved.</copyright>
		</contributor>
		<created>2017-11-01T10:14:23Z</created>
		<modified>2017-11-01T10:14:23Z</modified>
		<unit meter="0.00100000" name="millimeters"/>
		<up_axis>Z_UP</up_axis>
	</asset>
	<library_visual_scenes>
		<visual_scene id="jtScene">
			<node>
				<translate>100.00000000 100.00000000 100.00000000</translate>
				<instance_light url="#sun"/>
			</node>
			<node>
				<translate>-100.00000000 -100.00000000 -100.00000000</translate>
				<instance_light url="#sun"/>
			</node>
			<node id="_00000052879_v_10_iso_70891">
				<matrix>1.00000000 0.00000000 0.00000000 0.00000000 0.00000000 1.00000000 0.00000000 0.00000000 0.00000000 0.00000000 1.00000000 0.00000000 0.00000000 0.00000000 0.00000000 1.00000000</matrix>
				<instance_node url="#_00000052879_v_10_iso_70891_Proto"/>
			</node>
		</visual_scene>
	</library_visual_scenes>
	<library_lights>
		<light id="sun">
			<technique_common>
				<point>
					<color>1.00000000 1.00000000 1.00000000</color>
					<constant_attenuation>1.00000000</constant_attenuation>
					<linear_attenuation>0.00000000</linear_attenuation>
					<quadratic_attenuation>0.00000000</quadratic_attenuation>
				</point>
			</technique_common>
		</light>
	</library_lights>
	<library_geometries>
		<geometry id="_00000052879_v_10_iso_70891Geom">
			<mesh>
				<source id="JtkTriStripSet1_Triangles-positions">
					<float_array id="JtkTriStripSet1_Triangles-positions-array" count="1674">0.00000000 9.96533775 -0.83188909 0.00000000 9.86206913 -1.65517247 0.00000000 10.00000000 -0.00000000 0.00000000 9.86206913 -1.65517247 -0.00000000 9.96533775 0.83188909 0.00000000 9.69230747 -2.46153855 -0.00000000 9.86206913 1.65517247 0.00000000 9.45945930 -3.24324322 -0.00000000 9.69230747 2.46153855 0.00000000 9.45945930 -3.24324322 -0.00000000 9.45945930 3.24324322 0.00000000 9.16805363 -3.99334431 -0.00000000 9.16805363 3.99334431 0.00000000 8.82352924 -4.70588255 -0.00000000 8.82352924 4.70588255 0.00000000 5.17758608 -0.86896551 -0.00000000 8.82352924 4.70588255 0.00000000 5.25000000 0.00000000 -0.00000000 8.82352924 4.70588255 -0.00000000 5.17758608 0.86896551 -0.00000000 8.43200016 5.37599993 -0.00000000 7.04141998 7.10059166 -0.00000000 8.00000000 6.00000000 -0.00000000 5.17758608 0.86896551 -0.00000000 4.96621609 1.70270276 -0.00000000 7.04141998 7.10059166 -0.00000000 4.63235283 2.47058821 -0.00000000 6.00000000 8.00000000 -0.00000000 4.19999981 3.15000010 -0.00000000 6.00000000 8.00000000 -0.00000000 3.69674563 3.72781062 -0.00000000 3.84615374 9.23076916 -0.00000000 3.69674563 3.72781062 -0.00000000 2.79999995 9.60000038 -0.00000000 3.15000010 4.19999981 -0.00000000 2.79999995 9.60000038 -0.00000000 2.58419681 4.56994820 -0.00000000 0.86792451 9.96226406 -0.00000000 2.01923084 4.84615374 -0.00000000 0.86792451 9.96226406 -0.00000000 1.47000003 5.03999996 -0.00000000 0.86792451 9.96226406 -0.00000000 0.94672132 5.16393423 -0.00000000 0.86792451 9.96226406 -0.00000000 0.00000000 5.25000000 -0.00000000 0.00000000 10.00000000 -0.00000000 -0.94672132 5.16393423 -0.00000000 0.00000000 10.00000000 -0.00000000 -1.47000003 5.03999996 -0.00000000 -2.79999995 9.60000038 -0.00000000 -2.01923084 4.84615374 -0.00000000 -2.79999995 9.60000038 -0.00000000 -2.58419681 4.56994820 -0.00000000 -2.79999995 9.60000038 -0.00000000 -3.15000010 4.19999981 -0.00000000 -2.79999995 9.60000038 -0.00000000 -3.69674563 3.72781062 -0.00000000 -3.84615374 9.23076916 -0.00000000 -4.19999981 3.15000010 -0.00000000 -4.92227983 8.70466328 -0.00000000 -4.63235283 2.47058821 -0.00000000 -4.92227983 8.70466328 -0.00000000 -4.96621609 1.70270276 -0.00000000 -6.00000000 8.00000000 -0.00000000 -5.17758608 0.86896551 0.00000000 -6.00000000 -8.00000000 0.00000000 -5.25000000 0.00000000 0.00000000 -6.00000000 -8.00000000 0.00000000 -5.17758608 -0.86896551 0.00000000 -6.00000000 -8.00000000 0.00000000 -4.96621609 -1.70270276 0.00000000 -6.00000000 -8.00000000 0.00000000 -4.63235283 -2.47058821 0.00000000 -6.00000000 -8.00000000 0.00000000 -4.19999981 -3.15000010 0.00000000 -6.00000000 -8.00000000 0.00000000 -3.69674563 -3.72781062 0.00000000 -3.84615374 -9.23076916 0.00000000 -3.69674563 -3.72781062 0.00000000 -2.79999995 -9.60000038 0.00000000 -3.15000010 -4.19999981 0.00000000 -2.79999995 -9.60000038 0.00000000 -2.58419681 -4.56994820 0.00000000 -0.86792451 -9.96226406 0.00000000 -2.01923084 -4.84615374 0.00000000 -0.86792451 -9.96226406 0.00000000 -1.47000003 -5.03999996 0.00000000 -0.86792451 -9.96226406 0.00000000 -0.94672132 -5.16393423 0.00000000 -0.86792451 -9.96226406 0.00000000 -0.00000000 -5.25000000 0.00000000 -0.00000000 -10.00000000 0.00000000 -0.00000000 -5.25000000 0.00000000 0.86792451 -9.96226406 0.00000000 0.94672132 -5.16393423 0.00000000 2.79999995 -9.60000038 0.00000000 1.47000003 -5.03999996 0.00000000 2.79999995 -9.60000038 0.00000000 2.01923084 -4.84615374 0.00000000 2.79999995 -9.60000038 0.00000000 2.58419681 -4.56994820 0.00000000 2.79999995 -9.60000038 0.00000000 3.15000010 -4.19999981 0.00000000 2.79999995 -9.60000038 0.00000000 3.69674563 -3.72781062 0.00000000 3.84615374 -9.23076916 0.00000000 3.69674563 -3.72781062 0.00000000 4.92227983 -8.70466328 0.00000000 4.19999981 -3.15000010 0.00000000 6.00000000 -8.00000000 0.00000000 8.43200016 -5.37599993 0.00000000 7.04141998 -7.10059166 0.00000000 8.00000000 -6.00000000 -0.00000000 3.84615374 9.23076916 -0.00000000 4.92227983 8.70466328 -0.00000000 6.00000000 8.00000000 -0.00000000 0.86792451 9.96226406 -0.00000000 1.80327868 9.83606529 -0.00000000 2.79999995 9.60000038 0.00000000 -3.84615374 -9.23076916 0.00000000 -4.92227983 -8.70466328 0.00000000 -6.00000000 -8.00000000 0.00000000 -0.86792451 -9.96226406 0.00000000 -1.80327868 -9.83606529 0.00000000 -2.79999995 -9.60000038 0.00000000 0.86792451 -9.96226406 0.00000000 2.79999995 -9.60000038 0.00000000 1.80327868 -9.83606529 0.00000000 4.19999981 -3.15000010 0.00000000 4.63235283 -2.47058821 0.00000000 8.43200016 -5.37599993 0.00000000 4.63235283 -2.47058821 0.00000000 8.82352924 -4.70588255 0.00000000 4.96621609 -1.70270276 0.00000000 5.17758608 -0.86896551 0.00000000 -6.00000000 -8.00000000 0.00000000 -7.04141998 -7.10059166 -0.00000000 -6.00000000 8.00000000 0.00000000 -7.04141998 -7.10059166 -0.00000000 -7.04141998 7.10059166 0.00000000 -8.00000000 -6.00000000 -0.00000000 -8.00000000 6.00000000 0.00000000 -8.43200016 -5.37599993 -0.00000000 -8.43200016 5.37599993 0.00000000 -8.82352924 -4.70588255 -0.00000000 -8.82352924 4.70588255 0.00000000 -9.16805363 -3.99334431 -0.00000000 -9.16805363 3.99334431 0.00000000 -9.45945930 -3.24324322 -0.00000000 -9.45945930 3.24324322 0.00000000 -9.69230747 -2.46153855 -0.00000000 -9.86206913 1.65517247 0.00000000 -9.86206913 -1.65517247 -0.00000000 -9.86206913 1.65517247 0.00000000 -9.96533775 -0.83188909 -0.00000000 -9.96533775 0.83188909 -0.00000000 -10.00000000 0.00000000 -0.00000000 -9.69230747 2.46153855 -0.00000000 -9.45945930 3.24324322 -0.00000000 -9.86206913 1.65517247 -0.00000000 0.00000000 10.00000000 -0.00000000 -2.79999995 9.60000038 -0.00000000 -0.86792451 9.96226406 -0.00000000 -1.80327868 9.83606529 2.00000000 3.84615374 -9.23076916 2.00000000 4.92227983 -8.70466328 2.00000000 2.79999995 -9.60000038 2.00000000 6.00000000 -8.00000000 2.00000000 2.58419681 -4.56994820 2.00000000 6.00000000 -8.00000000 2.00000000 3.15000010 -4.19999981 2.00000000 6.00000000 -8.00000000 2.00000000 3.69674563 -3.72781062 2.00000000 6.00000000 -8.00000000 2.00000000 4.19999981 -3.15000010 2.00000000 6.00000000 -8.00000000 2.00000000 4.63235283 -2.47058821 2.00000000 6.00000000 -8.00000000 2.00000000 4.96621609 -1.70270276 2.00000000 6.00000000 -8.00000000 2.00000000 5.17758608 -0.86896551 2.00000000 6.00000000 8.00000000 2.00000000 5.25000000 0.00000000 2.00000000 6.00000000 8.00000000 2.00000000 5.17758608 0.86896551 2.00000000 6.00000000 8.00000000 2.00000000 4.96621609 1.70270276 2.00000000 4.92227983 8.70466328 2.00000000 4.63235283 2.47058821 2.00000000 4.92227983 8.70466328 2.00000000 4.19999981 3.15000010 2.00000000 3.84615374 9.23076916 2.00000000 3.69674563 3.72781062 2.00000000 2.79999995 9.60000038 2.00000000 3.15000010 4.19999981 2.00000000 2.79999995 9.60000038 2.00000000 2.58419681 4.56994820 2.00000000 2.79999995 9.60000038 2.00000000 2.01923084 4.84615374 2.00000000 2.79999995 9.60000038 2.00000000 1.47000003 5.03999996 2.00000000 2.79999995 9.60000038 2.00000000 0.94672132 5.16393423 2.00000000 0.86792451 9.96226406 2.00000000 0.94672132 5.16393423 2.00000000 0.00000000 10.00000000 2.00000000 0.00000000 5.25000000 2.00000000 -1.80327868 9.83606529 2.00000000 -0.94672132 5.16393423 2.00000000 -1.80327868 9.83606529 2.00000000 -1.47000003 5.03999996 2.00000000 -2.79999995 9.60000038 2.00000000 -2.01923084 4.84615374 2.00000000 -2.79999995 9.60000038 2.00000000 -2.58419681 4.56994820 2.00000000 -6.00000000 8.00000000 2.00000000 -3.15000010 4.19999981 2.00000000 -6.00000000 8.00000000 2.00000000 -3.69674563 3.72781062 2.00000000 -6.00000000 8.00000000 2.00000000 -4.19999981 3.15000010 2.00000000 -6.00000000 8.00000000 2.00000000 -4.63235283 2.47058821 2.00000000 -6.00000000 8.00000000 2.00000000 -4.96621609 1.70270276 2.00000000 -6.00000000 8.00000000 2.00000000 -5.17758608 0.86896551 2.00000000 -6.00000000 -8.00000000 2.00000000 -5.25000000 0.00000000 2.00000000 -6.00000000 -8.00000000 2.00000000 -5.17758608 -0.86896551 2.00000000 -6.00000000 -8.00000000 2.00000000 -4.96621609 -1.70270276 2.00000000 -4.92227983 -8.70466328 2.00000000 -4.63235283 -2.47058821 2.00000000 -4.92227983 -8.70466328 2.00000000 -4.19999981 -3.15000010 2.00000000 -3.84615374 -9.23076916 2.00000000 -3.69674563 -3.72781062 2.00000000 -2.79999995 -9.60000038 2.00000000 -3.15000010 -4.19999981 2.00000000 -2.79999995 -9.60000038 2.00000000 -2.58419681 -4.56994820 2.00000000 -2.79999995 -9.60000038 2.00000000 -2.01923084 -4.84615374 2.00000000 -2.79999995 -9.60000038 2.00000000 -1.47000003 -5.03999996 2.00000000 -0.00000000 -10.00000000 2.00000000 -0.94672132 -5.16393423 2.00000000 -0.00000000 -10.00000000 2.00000000 -0.00000000 -5.25000000 2.00000000 1.80327868 -9.83606529 2.00000000 0.94672132 -5.16393423 2.00000000 1.80327868 -9.83606529 2.00000000 1.47000003 -5.03999996 2.00000000 2.79999995 -9.60000038 2.00000000 2.01923084 -4.84615374 2.00000000 2.58419681 -4.56994820 2.00000000 1.80327868 9.83606529 2.00000000 0.86792451 9.96226406 2.00000000 2.79999995 9.60000038 2.00000000 0.00000000 10.00000000 2.00000000 -0.86792451 9.96226406 2.00000000 -1.80327868 9.83606529 2.00000000 -0.00000000 -10.00000000 2.00000000 0.86792451 -9.96226406 2.00000000 1.80327868 -9.83606529 2.00000000 -0.00000000 -10.00000000 2.00000000 -2.79999995 -9.60000038 2.00000000 -0.86792451 -9.96226406 2.00000000 -1.80327868 -9.83606529 2.00000000 -6.00000000 8.00000000 2.00000000 -7.04141998 7.10059166 2.00000000 -6.00000000 -8.00000000 2.00000000 -7.04141998 7.10059166 2.00000000 -7.04141998 -7.10059166 2.00000000 -8.00000000 6.00000000 2.00000000 -8.00000000 -6.00000000 2.00000000 -8.22064018 5.69395018 2.00000000 -8.00000000 -6.00000000 2.00000000 -8.43200016 5.37599993 2.00000000 -8.43200016 -5.37599993 2.00000000 -8.82352924 4.70588255 2.00000000 -8.82352924 -4.70588255 2.00000000 -9.16805363 3.99334431 2.00000000 -9.16805363 -3.99334431 2.00000000 -9.45945930 3.24324322 2.00000000 -9.45945930 -3.24324322 2.00000000 -9.69230747 2.46153855 2.00000000 -9.45945930 -3.24324322 2.00000000 -9.86206913 1.65517247 2.00000000 -9.69230747 -2.46153855 2.00000000 -9.96533775 0.83188909 2.00000000 -9.86206913 -1.65517247 2.00000000 -10.00000000 0.00000000 2.00000000 -9.96533775 -0.83188909 2.00000000 -6.00000000 8.00000000 2.00000000 -2.79999995 9.60000038 2.00000000 -4.92227983 8.70466328 2.00000000 -3.84615374 9.23076916 2.00000000 6.00000000 -8.00000000 2.00000000 7.04141998 -7.10059166 2.00000000 6.00000000 8.00000000 2.00000000 7.04141998 -7.10059166 2.00000000 7.04141998 7.10059166 2.00000000 8.00000000 -6.00000000 2.00000000 8.00000000 6.00000000 2.00000000 8.22064018 -5.69395018 2.00000000 8.00000000 6.00000000 2.00000000 8.43200016 -5.37599993 2.00000000 8.43200016 5.37599993 2.00000000 8.82352924 -4.70588255 2.00000000 8.82352924 4.70588255 2.00000000 9.16805363 -3.99334431 2.00000000 9.16805363 3.99334431 2.00000000 9.45945930 -3.24324322 2.00000000 9.45945930 3.24324322 2.00000000 9.69230747 -2.46153855 2.00000000 9.45945930 3.24324322 2.00000000 9.86206913 -1.65517247 2.00000000 9.69230747 2.46153855 2.00000000 9.96533775 -0.83188909 2.00000000 9.86206913 1.65517247 2.00000000 10.00000000 -0.00000000 2.00000000 9.96533775 0.83188909 2.00000000 0.00000000 10.00000000 2.00000000 0.86792451 9.96226406 -0.00000000 0.00000000 10.00000000 2.00000000 0.86792451 9.96226406 -0.00000000 0.86792451 9.96226406 2.00000000 0.86792451 9.96226406 -0.00000000 1.80327868 9.83606529 2.00000000 1.80327868 9.83606529 -0.00000000 2.79999995 9.60000038 2.00000000 2.79999995 9.60000038 -0.00000000 3.84615374 9.23076916 2.00000000 3.84615374 9.23076916 -0.00000000 4.92227983 8.70466328 2.00000000 4.92227983 8.70466328 -0.00000000 6.00000000 8.00000000 2.00000000 6.00000000 8.00000000 -0.00000000 7.04141998 7.10059166 2.00000000 7.04141998 7.10059166 -0.00000000 8.00000000 6.00000000 2.00000000 8.00000000 6.00000000 -0.00000000 8.43200016 5.37599993 2.00000000 8.43200016 5.37599993 -0.00000000 8.82352924 4.70588255 2.00000000 8.82352924 4.70588255 -0.00000000 9.16805363 3.99334431 2.00000000 9.16805363 3.99334431 -0.00000000 9.45945930 3.24324322 2.00000000 9.45945930 3.24324322 -0.00000000 9.69230747 2.46153855 2.00000000 9.69230747 2.46153855 -0.00000000 9.86206913 1.65517247 2.00000000 9.86206913 1.65517247 -0.00000000 9.96533775 0.83188909 2.00000000 9.96533775 0.83188909 0.00000000 10.00000000 -0.00000000 2.00000000 10.00000000 -0.00000000 0.00000000 9.96533775 -0.83188909 2.00000000 9.96533775 -0.83188909 0.00000000 9.86206913 -1.65517247 2.00000000 9.86206913 -1.65517247 0.00000000 9.69230747 -2.46153855 2.00000000 9.69230747 -2.46153855 0.00000000 9.45945930 -3.24324322 2.00000000 9.45945930 -3.24324322 0.00000000 9.16805363 -3.99334431 2.00000000 9.16805363 -3.99334431 0.00000000 8.82352924 -4.70588255 2.00000000 8.82352924 -4.70588255 0.00000000 8.43200016 -5.37599993 2.00000000 8.43200016 -5.37599993 0.00000000 8.43200016 -5.37599993 2.00000000 8.22064018 -5.69395018 0.00000000 8.00000000 -6.00000000 2.00000000 8.00000000 -6.00000000 0.00000000 7.04141998 -7.10059166 2.00000000 7.04141998 -7.10059166 0.00000000 6.00000000 -8.00000000 2.00000000 6.00000000 -8.00000000 0.00000000 4.92227983 -8.70466328 2.00000000 4.92227983 -8.70466328 0.00000000 3.84615374 -9.23076916 2.00000000 3.84615374 -9.23076916 0.00000000 2.79999995 -9.60000038 2.00000000 2.79999995 -9.60000038 0.00000000 1.80327868 -9.83606529 2.00000000 1.80327868 -9.83606529 0.00000000 0.86792451 -9.96226406 2.00000000 0.86792451 -9.96226406 0.00000000 -0.00000000 -10.00000000 2.00000000 -0.00000000 -10.00000000 2.00000000 0.00000000 10.00000000 -0.00000000 0.00000000 10.00000000 2.00000000 -0.86792451 9.96226406 -0.00000000 -0.86792451 9.96226406 2.00000000 -1.80327868 9.83606529 -0.00000000 -1.80327868 9.83606529 2.00000000 -2.79999995 9.60000038 -0.00000000 -2.79999995 9.60000038 2.00000000 -3.84615374 9.23076916 -0.00000000 -3.84615374 9.23076916 2.00000000 -4.92227983 8.70466328 -0.00000000 -4.92227983 8.70466328 2.00000000 -6.00000000 8.00000000 -0.00000000 -6.00000000 8.00000000 2.00000000 -7.04141998 7.10059166 -0.00000000 -7.04141998 7.10059166 2.00000000 -8.00000000 6.00000000 -0.00000000 -8.00000000 6.00000000 2.00000000 -8.22064018 5.69395018 -0.00000000 -8.43200016 5.37599993 2.00000000 -8.43200016 5.37599993 -0.00000000 -8.43200016 5.37599993 2.00000000 -8.82352924 4.70588255 -0.00000000 -8.82352924 4.70588255 2.00000000 -9.16805363 3.99334431 -0.00000000 -9.16805363 3.99334431 2.00000000 -9.45945930 3.24324322 -0.00000000 -9.45945930 3.24324322 2.00000000 -9.69230747 2.46153855 -0.00000000 -9.69230747 2.46153855 2.00000000 -9.86206913 1.65517247 -0.00000000 -9.86206913 1.65517247 2.00000000 -9.96533775 0.83188909 -0.00000000 -9.96533775 0.83188909 2.00000000 -10.00000000 0.00000000 -0.00000000 -10.00000000 0.00000000 2.00000000 -9.96533775 -0.83188909 0.00000000 -9.96533775 -0.83188909 2.00000000 -9.86206913 -1.65517247 0.00000000 -9.86206913 -1.65517247 2.00000000 -9.69230747 -2.46153855 0.00000000 -9.69230747 -2.46153855 2.00000000 -9.45945930 -3.24324322 0.00000000 -9.45945930 -3.24324322 2.00000000 -9.16805363 -3.99334431 0.00000000 -9.16805363 -3.99334431 2.00000000 -8.82352924 -4.70588255 0.00000000 -8.82352924 -4.70588255 2.00000000 -8.43200016 -5.37599993 0.00000000 -8.43200016 -5.37599993 2.00000000 -8.00000000 -6.00000000 0.00000000 -8.00000000 -6.00000000 2.00000000 -7.04141998 -7.10059166 0.00000000 -7.04141998 -7.10059166 2.00000000 -6.00000000 -8.00000000 0.00000000 -6.00000000 -8.00000000 2.00000000 -4.92227983 -8.70466328 0.00000000 -4.92227983 -8.70466328 2.00000000 -3.84615374 -9.23076916 0.00000000 -3.84615374 -9.23076916 2.00000000 -2.79999995 -9.60000038 0.00000000 -2.79999995 -9.60000038 2.00000000 -1.80327868 -9.83606529 0.00000000 -1.80327868 -9.83606529 2.00000000 -0.86792451 -9.96226406 0.00000000 -0.86792451 -9.96226406 2.00000000 -0.86792451 -9.96226406 0.00000000 -0.00000000 -10.00000000 2.00000000 -0.00000000 -10.00000000 2.00000000 -0.00000000 -5.25000000 0.00000000 -0.00000000 -5.25000000 2.00000000 -0.94672132 -5.16393423 0.00000000 -0.94672132 -5.16393423 2.00000000 -1.47000003 -5.03999996 0.00000000 -1.47000003 -5.03999996 2.00000000 -2.01923084 -4.84615374 0.00000000 -2.01923084 -4.84615374 2.00000000 -2.58419681 -4.56994820 0.00000000 -2.58419681 -4.56994820 2.00000000 -3.15000010 -4.19999981 0.00000000 -3.15000010 -4.19999981 2.00000000 -3.69674563 -3.72781062 0.00000000 -3.69674563 -3.72781062 2.00000000 -4.19999981 -3.15000010 0.00000000 -4.19999981 -3.15000010 2.00000000 -4.63235283 -2.47058821 0.00000000 -4.63235283 -2.47058821 2.00000000 -4.96621609 -1.70270276 0.00000000 -4.96621609 -1.70270276 2.00000000 -5.17758608 -0.86896551 0.00000000 -5.17758608 -0.86896551 2.00000000 -5.25000000 0.00000000 0.00000000 -5.25000000 0.00000000 2.00000000 -5.17758608 0.86896551 -0.00000000 -5.17758608 0.86896551 2.00000000 -4.96621609 1.70270276 -0.00000000 -4.96621609 1.70270276 2.00000000 -4.63235283 2.47058821 -0.00000000 -4.63235283 2.47058821 2.00000000 -4.19999981 3.15000010 -0.00000000 -4.19999981 3.15000010 2.00000000 -3.69674563 3.72781062 -0.00000000 -3.69674563 3.72781062 2.00000000 -3.15000010 4.19999981 -0.00000000 -3.15000010 4.19999981 2.00000000 -2.58419681 4.56994820 -0.00000000 -2.58419681 4.56994820 2.00000000 -2.01923084 4.84615374 -0.00000000 -2.01923084 4.84615374 2.00000000 -1.47000003 5.03999996 -0.00000000 -1.47000003 5.03999996 2.00000000 -0.94672132 5.16393423 -0.00000000 -0.94672132 5.16393423 2.00000000 -0.94672132 5.16393423 -0.00000000 0.00000000 5.25000000 2.00000000 0.00000000 5.25000000 2.00000000 0.00000000 5.25000000 -0.00000000 0.00000000 5.25000000 2.00000000 0.94672132 5.16393423 -0.00000000 0.94672132 5.16393423 2.00000000 1.47000003 5.03999996 -0.00000000 1.47000003 5.03999996 2.00000000 2.01923084 4.84615374 -0.00000000 2.01923084 4.84615374 2.00000000 2.58419681 4.56994820 -0.00000000 2.58419681 4.56994820 2.00000000 3.15000010 4.19999981 -0.00000000 3.15000010 4.19999981 2.00000000 3.69674563 3.72781062 -0.00000000 3.69674563 3.72781062 2.00000000 4.19999981 3.15000010 -0.00000000 4.19999981 3.15000010 2.00000000 4.63235283 2.47058821 -0.00000000 4.63235283 2.47058821 2.00000000 4.96621609 1.70270276 -0.00000000 4.96621609 1.70270276 2.00000000 5.17758608 0.86896551 -0.00000000 5.17758608 0.86896551 2.00000000 5.25000000 0.00000000 0.00000000 5.25000000 0.00000000 2.00000000 5.17758608 -0.86896551 0.00000000 5.17758608 -0.86896551 2.00000000 4.96621609 -1.70270276 0.00000000 4.96621609 -1.70270276 2.00000000 4.63235283 -2.47058821 0.00000000 4.63235283 -2.47058821 2.00000000 4.19999981 -3.15000010 0.00000000 4.19999981 -3.15000010 2.00000000 3.69674563 -3.72781062 0.00000000 3.69674563 -3.72781062 2.00000000 3.15000010 -4.19999981 0.00000000 3.15000010 -4.19999981 2.00000000 2.58419681 -4.56994820 0.00000000 2.58419681 -4.56994820 2.00000000 2.01923084 -4.84615374 0.00000000 2.01923084 -4.84615374 2.00000000 1.47000003 -5.03999996 0.00000000 1.47000003 -5.03999996 2.00000000 0.94672132 -5.16393423 0.00000000 0.94672132 -5.16393423 2.00000000 0.94672132 -5.16393423 0.00000000 -0.00000000 -5.25000000 2.00000000 -0.00000000 -5.25000000</float_array>
					<technique_common>
						<accessor count="558" source="#JtkTriStripSet1_Triangles-positions-array" stride="3">
							<param name="X" type="float"/>
							<param name="Y" type="float"/>
							<param name="Z" type="float"/>
						</accessor>
					</technique_common>
				</source>
				<source id="_00000052879_v_10_iso_70891Geom-normals">
					<float_array id="_00000052879_v_10_iso_70891Geom-normals-array" count="1674">-1.00000000 0.00000000 -0.00000000 -1.00000000 0.00000000 -0.00000000 -1.00000000 -0.00000000 -0.00000000 -1.00000000 0.00000000 -0.00000000 -1.00000000 -0.00000000 -0.00000000 -1.00000000 -0.00000000 -0.00000000 -1.00000000 0.00000000 -0.00000000 -1.00000000 0.00000000 -0.00000000 -1.00000000 -0.00000000 -0.00000000 -1.00000000 0.00000000 -0.00000000 -1.00000000 0.00000000 -0.00000000 -1.00000000 0.00000000 -0.00000000 -1.00000000 0.00000000 -0.00000000 -1.00000000 0.00000000 -0.00000000 -1.00000000 -0.00000000 -0.00000000 -1.00000000 0.00000000 -0.00000000 -1.00000000 -0.00000000 -0.00000000 -1.00000000 -0.00000000 -0.00000000 -1.00000000 -0.00000000 -0.00000000 -1.00000000 0.00000000 -0.00000000 -1.00000000 -0.00000000 -0.00000000 -1.00000000 -0.00000000 -0.00000000 -1.00000000 -0.00000000 -0.00000000 -1.00000000 0.00000000 -0.00000000 -1.00000000 -0.00000000 -0.00000000 -1.00000000 -0.00000000 -0.00000000 -1.00000000 -0.00000000 -0.00000000 -1.00000000 0.00000000 -0.00000000 -1.00000000 0.00000000 -0.00000000 -1.00000000 0.00000000 -0.00000000 -1.00000000 0.00000000 -0.00000000 -1.00000000 0.00000000 -0.00000000 -1.00000000 0.00000000 -0.00000000 -1.00000000 -0.00000000 -0.00000000 -1.00000000 -0.00000000 -0.00000000 -1.00000000 -0.00000000 -0.00000000 -1.00000000 -0.00000000 -0.00000000 -1.00000000 -0.00000000 -0.00000000 -1.00000000 -0.00000000 -0.00000000 -1.00000000 -0.00000000 -0.00000000 -1.00000000 -0.00000000 -0.00000000 -1.00000000 -0.00000000 -0.00000000 -1.00000000 -0.00000000 -0.00000000 -1.00000000 -0.00000000 -0.00000000 -1.00000000 -0.00000000 -0.00000000 -1.00000000 -0.00000000 -0.00000000 -1.00000000 0.00000000 -0.00000000 -1.00000000 -0.00000000 -0.00000000 -1.00000000 -0.00000000 -0.00000000 -1.00000000 -0.00000000 -0.00000000 -1.00000000 0.00000000 -0.00000000 -1.00000000 -0.00000000 -0.00000000 -1.00000000 -0.00000000 -0.00000000 -1.00000000 -0.00000000 -0.00000000 -1.00000000 -0.00000000 -0.00000000 -1.00000000 -0.00000000 -0.00000000 -1.00000000 -0.00000000 -0.00000000 -1.00000000 -0.00000000 -0.00000000 -1.00000000 -0.00000000 -0.00000000 -1.00000000 -0.00000000 -0.00000000 -1.00000000 0.00000000 -0.00000000 -1.00000000 -0.00000000 -0.00000000 -1.00000000 0.00000000 -0.00000000 -1.00000000 0.00000000 -0.00000000 -1.00000000 0.00000000 -0.00000000 -1.00000000 -0.00000000 -0.00000000 -1.00000000 -0.00000000 -0.00000000 -1.00000000 -0.00000000 -0.00000000 -1.00000000 -0.00000000 -0.00000000 -1.00000000 -0.00000000 -0.00000000 -1.00000000 -0.00000000 -0.00000000 -1.00000000 -0.00000000 -0.00000000 -1.00000000 -0.00000000 -0.00000000 -1.00000000 -0.00000000 -0.00000000 -1.00000000 -0.00000000 -0.00000000 -1.00000000 -0.00000000 -0.00000000 -1.00000000 -0.00000000 -0.00000000 -1.00000000 -0.00000000 -0.00000000 -1.00000000 -0.00000000 -0.00000000 -1.00000000 0.00000000 -0.00000000 -1.00000000 0.00000000 -0.00000000 -1.00000000 0.00000000 -0.00000000 -1.00000000 -0.00000000 -0.00000000 -1.00000000 -0.00000000 -0.00000000 -1.00000000 0.00000000 -0.00000000 -1.00000000 -0.00000000 -0.00000000 -1.00000000 0.00000000 -0.00000000 -1.00000000 -0.00000000 -0.00000000 -1.00000000 0.00000000 -0.00000000 -1.00000000 -0.00000000 -0.00000000 -1.00000000 -0.00000000 -0.00000000 -1.00000000 -0.00000000 -0.00000000 -1.00000000 -0.00000000 -0.00000000 -1.00000000 0.00000000 -0.00000000 -1.00000000 -0.00000000 -0.00000000 -1.00000000 0.00000000 -0.00000000 -1.00000000 -0.00000000 -0.00000000 -1.00000000 0.00000000 -0.00000000 -1.00000000 0.00000000 -0.00000000 -1.00000000 0.00000000 -0.00000000 -1.00000000 -0.00000000 -0.00000000 -1.00000000 0.00000000 -0.00000000 -1.00000000 0.00000000 -0.00000000 -1.00000000 0.00000000 -0.00000000 -1.00000000 -0.00000000 -0.00000000 -1.00000000 0.00000000 -0.00000000 -1.00000000 -0.00000000 -0.00000000 -1.00000000 0.00000000 -0.00000000 -1.00000000 -0.00000000 -0.00000000 -1.00000000 -0.00000000 -0.00000000 -1.00000000 -0.00000000 -0.00000000 -1.00000000 -0.00000000 -0.00000000 -1.00000000 0.00000000 -0.00000000 -1.00000000 0.00000000 -0.00000000 -1.00000000 -0.00000000 -0.00000000 -1.00000000 0.00000000 -0.00000000 -1.00000000 -0.00000000 -0.00000000 -1.00000000 0.00000000 -0.00000000 -1.00000000 -0.00000000 -0.00000000 -1.00000000 -0.00000000 -0.00000000 -1.00000000 0.00000000 -0.00000000 -1.00000000 -0.00000000 -0.00000000 -1.00000000 -0.00000000 -0.00000000 -1.00000000 -0.00000000 -0.00000000 -1.00000000 0.00000000 -0.00000000 -1.00000000 0.00000000 -0.00000000 -1.00000000 0.00000000 -0.00000000 -1.00000000 0.00000000 -0.00000000 -1.00000000 -0.00000000 -0.00000000 -1.00000000 0.00000000 -0.00000000 -1.00000000 -0.00000000 -0.00000000 -1.00000000 0.00000000 -0.00000000 -1.00000000 0.00000000 -0.00000000 -1.00000000 0.00000000 -0.00000000 -1.00000000 0.00000000 -0.00000000 -1.00000000 -0.00000000 -0.00000000 -1.00000000 0.00000000 -0.00000000 -1.00000000 0.00000000 -0.00000000 -1.00000000 0.00000000 -0.00000000 -1.00000000 0.00000000 -0.00000000 -1.00000000 -0.00000000 -0.00000000 -1.00000000 -0.00000000 -0.00000000 -1.00000000 0.00000000 -0.00000000 -1.00000000 -0.00000000 -0.00000000 -1.00000000 -0.00000000 -0.00000000 -1.00000000 0.00000000 -0.00000000 -1.00000000 -0.00000000 -0.00000000 -1.00000000 -0.00000000 -0.00000000 -1.00000000 -0.00000000 -0.00000000 -1.00000000 -0.00000000 -0.00000000 -1.00000000 -0.00000000 -0.00000000 -1.00000000 -0.00000000 -0.00000000 -1.00000000 -0.00000000 -0.00000000 -1.00000000 -0.00000000 -0.00000000 -1.00000000 -0.00000000 -0.00000000 -1.00000000 -0.00000000 -0.00000000 -1.00000000 -0.00000000 -0.00000000 -1.00000000 -0.00000000 -0.00000000 -1.00000000 -0.00000000 -0.00000000 -1.00000000 -0.00000000 -0.00000000 -1.00000000 -0.00000000 -0.00000000 -1.00000000 -0.00000000 -0.00000000 -1.00000000 -0.00000000 -0.00000000 -1.00000000 0.00000000 -0.00000000 1.00000000 -0.00000000 0.00000000 1.00000000 0.00000000 0.00000000 1.00000000 -0.00000000 0.00000000 1.00000000 -0.00000000 0.00000000 1.00000000 -0.00000000 0.00000000 1.00000000 -0.00000000 0.00000000 1.00000000 -0.00000000 0.00000000 1.00000000 -0.00000000 0.00000000 1.00000000 0.00000000 0.00000000 1.00000000 -0.00000000 0.00000000 1.00000000 -0.00000000 0.00000000 1.00000000 -0.00000000 0.00000000 1.00000000 -0.00000000 0.00000000 1.00000000 -0.00000000 0.00000000 1.00000000 -0.00000000 0.00000000 1.00000000 -0.00000000 0.00000000 1.00000000 0.00000000 0.00000000 1.00000000 -0.00000000 0.00000000 1.00000000 -0.00000000 0.00000000 1.00000000 -0.00000000 0.00000000 1.00000000 -0.00000000 0.00000000 1.00000000 -0.00000000 0.00000000 1.00000000 0.00000000 0.00000000 1.00000000 -0.00000000 0.00000000 1.00000000 0.00000000 0.00000000 1.00000000 -0.00000000 0.00000000 1.00000000 -0.00000000 0.00000000 1.00000000 0.00000000 0.00000000 1.00000000 -0.00000000 0.00000000 1.00000000 -0.00000000 0.00000000 1.00000000 -0.00000000 0.00000000 1.00000000 -0.00000000 0.00000000 1.00000000 -0.00000000 0.00000000 1.00000000 -0.00000000 0.00000000 1.00000000 -0.00000000 0.00000000 1.00000000 -0.00000000 0.00000000 1.00000000 -0.00000000 0.00000000 1.00000000 -0.00000000 0.00000000 1.00000000 -0.00000000 0.00000000 1.00000000 -0.00000000 0.00000000 1.00000000 -0.00000000 0.00000000 1.00000000 -0.00000000 0.00000000 1.00000000 -0.00000000 0.00000000 1.00000000 -0.00000000 0.00000000 1.00000000 -0.00000000 0.00000000 1.00000000 -0.00000000 0.00000000 1.00000000 0.00000000 0.00000000 1.00000000 0.00000000 0.00000000 1.00000000 -0.00000000 0.00000000 1.00000000 0.00000000 0.00000000 1.00000000 -0.00000000 0.00000000 1.00000000 -0.00000000 0.00000000 1.00000000 0.00000000 0.00000000 1.00000000 -0.00000000 0.00000000 1.00000000 -0.00000000 0.00000000 1.00000000 -0.00000000 0.00000000 1.00000000 -0.00000000 0.00000000 1.00000000 -0.00000000 0.00000000 1.00000000 -0.00000000 0.00000000 1.00000000 -0.00000000 0.00000000 1.00000000 0.00000000 0.00000000 1.00000000 -0.00000000 0.00000000 1.00000000 0.00000000 0.00000000 1.00000000 0.00000000 0.00000000 1.00000000 0.00000000 0.00000000 1.00000000 0.00000000 0.00000000 1.00000000 0.00000000 0.00000000 1.00000000 0.00000000 0.00000000 1.00000000 0.00000000 0.00000000 1.00000000 0.00000000 0.00000000 1.00000000 -0.00000000 0.00000000 1.00000000 0.00000000 0.00000000 1.00000000 0.00000000 0.00000000 1.00000000 -0.00000000 0.00000000 1.00000000 -0.00000000 0.00000000 1.00000000 -0.00000000 0.00000000 1.00000000 -0.00000000 0.00000000 1.00000000 -0.00000000 0.00000000 1.00000000 0.00000000 0.00000000 1.00000000 -0.00000000 0.00000000 1.00000000 -0.00000000 0.00000000 1.00000000 -0.00000000 0.00000000 1.00000000 -0.00000000 0.00000000 1.00000000 0.00000000 0.00000000 1.00000000 -0.00000000 0.00000000 1.00000000 0.00000000 0.00000000 1.00000000 -0.00000000 0.00000000 1.00000000 -0.00000000 0.00000000 1.00000000 -0.00000000 0.00000000 1.00000000 -0.00000000 0.00000000 1.00000000 0.00000000 0.00000000 1.00000000 -0.00000000 0.00000000 1.00000000 -0.00000000 0.00000000 1.00000000 -0.00000000 0.00000000 1.00000000 -0.00000000 0.00000000 1.00000000 -0.00000000 0.00000000 1.00000000 -0.00000000 0.00000000 1.00000000 -0.00000000 0.00000000 1.00000000 -0.00000000 0.00000000 1.00000000 -0.00000000 0.00000000 1.00000000 0.00000000 0.00000000 1.00000000 -0.00000000 0.00000000 1.00000000 -0.00000000 0.00000000 1.00000000 0.00000000 0.00000000 1.00000000 -0.00000000 0.00000000 1.00000000 -0.00000000 0.00000000 1.00000000 0.00000000 0.00000000 1.00000000 -0.00000000 0.00000000 1.00000000 0.00000000 0.00000000 1.00000000 0.00000000 0.00000000 1.00000000 0.00000000 0.00000000 1.00000000 0.00000000 0.00000000 1.00000000 0.00000000 0.00000000 1.00000000 -0.00000000 0.00000000 1.00000000 -0.00000000 0.00000000 1.00000000 -0.00000000 0.00000000 1.00000000 -0.00000000 0.00000000 1.00000000 -0.00000000 0.00000000 1.00000000 -0.00000000 0.00000000 1.00000000 -0.00000000 0.00000000 1.00000000 -0.00000000 0.00000000 1.00000000 -0.00000000 0.00000000 1.00000000 0.00000000 0.00000000 1.00000000 0.00000000 0.00000000 1.00000000 0.00000000 0.00000000 1.00000000 0.00000000 0.00000000 1.00000000 0.00000000 0.00000000 1.00000000 -0.00000000 0.00000000 1.00000000 0.00000000 0.00000000 1.00000000 -0.00000000 0.00000000 1.00000000 -0.00000000 0.00000000 1.00000000 0.00000000 0.00000000 1.00000000 -0.00000000 0.00000000 1.00000000 0.00000000 0.00000000 1.00000000 -0.00000000 0.00000000 1.00000000 -0.00000000 0.00000000 1.00000000 -0.00000000 0.00000000 1.00000000 -0.00000000 0.00000000 1.00000000 -0.00000000 0.00000000 1.00000000 -0.00000000 0.00000000 1.00000000 -0.00000000 0.00000000 1.00000000 -0.00000000 0.00000000 1.00000000 -0.00000000 0.00000000 1.00000000 -0.00000000 0.00000000 1.00000000 -0.00000000 0.00000000 1.00000000 -0.00000000 0.00000000 1.00000000 -0.00000000 0.00000000 1.00000000 0.00000000 0.00000000 1.00000000 -0.00000000 0.00000000 1.00000000 -0.00000000 0.00000000 1.00000000 -0.00000000 0.00000000 1.00000000 -0.00000000 0.00000000 1.00000000 -0.00000000 0.00000000 1.00000000 -0.00000000 0.00000000 1.00000000 -0.00000000 0.00000000 1.00000000 -0.00000000 0.00000000 1.00000000 -0.00000000 0.00000000 1.00000000 -0.00000000 0.00000000 1.00000000 -0.00000000 0.00000000 1.00000000 -0.00000000 0.00000000 1.00000000 0.00000000 0.00000000 -0.00000000 0.00000000 1.00000000 -0.00000000 0.08679245 0.99622643 -0.00000000 0.00000000 1.00000000 -0.00000000 0.08679245 0.99622643 -0.00000000 0.08679245 0.99622643 -0.00000000 0.08679245 0.99622643 -0.00000000 0.18032786 0.98360658 -0.00000000 0.18032786 0.98360658 -0.00000000 0.28000000 0.95999998 -0.00000000 0.28000000 0.95999998 -0.00000000 0.38461539 0.92307693 -0.00000000 0.38461539 0.92307693 -0.00000000 0.49222797 0.87046629 -0.00000000 0.49222797 0.87046629 -0.00000000 0.60000002 0.80000001 -0.00000000 0.60000002 0.80000001 -0.00000000 0.70414203 0.71005917 -0.00000000 0.70414203 0.71005917 -0.00000000 0.80000001 0.60000002 -0.00000000 0.80000001 0.60000002 -0.00000000 0.84320003 0.53759998 -0.00000000 0.84320003 0.53759998 -0.00000000 0.88235295 0.47058824 -0.00000000 0.88235295 0.47058824 -0.00000000 0.91680533 0.39933443 -0.00000000 0.91680533 0.39933443 -0.00000000 0.94594604 0.32432434 -0.00000000 0.94594604 0.32432434 -0.00000000 0.96923077 0.24615385 -0.00000000 0.96923077 0.24615385 -0.00000000 0.98620689 0.16551724 -0.00000000 0.98620689 0.16551724 -0.00000000 0.99653381 0.08318891 -0.00000000 0.99653381 0.08318891 0.00000000 1.00000000 -0.00000000 0.00000000 1.00000000 -0.00000000 0.00000000 0.99653381 -0.08318891 0.00000000 0.99653381 -0.08318891 0.00000000 0.98620689 -0.16551724 0.00000000 0.98620689 -0.16551724 0.00000000 0.96923077 -0.24615385 0.00000000 0.96923077 -0.24615385 0.00000000 0.94594604 -0.32432434 0.00000000 0.94594604 -0.32432434 0.00000000 0.91680533 -0.39933443 0.00000000 0.91680533 -0.39933443 0.00000000 0.88235295 -0.47058824 0.00000000 0.88235295 -0.47058824 0.00000000 0.84320003 -0.53759998 0.00000000 0.84320003 -0.53759998 0.00000000 0.84320003 -0.53759998 0.00000000 0.82206404 -0.56939501 0.00000000 0.80000001 -0.60000002 0.00000000 0.80000001 -0.60000002 0.00000000 0.70414203 -0.71005917 0.00000000 0.70414203 -0.71005917 0.00000000 0.60000002 -0.80000001 0.00000000 0.60000002 -0.80000001 0.00000000 0.49222797 -0.87046629 0.00000000 0.49222797 -0.87046629 0.00000000 0.38461539 -0.92307693 0.00000000 0.38461539 -0.92307693 0.00000000 0.28000000 -0.95999998 0.00000000 0.28000000 -0.95999998 0.00000000 0.18032786 -0.98360658 0.00000000 0.18032786 -0.98360658 0.00000000 0.08679245 -0.99622643 0.00000000 0.08679245 -0.99622643 0.00000000 -0.00000000 -1.00000000 0.00000000 -0.00000000 -1.00000000 -0.00000000 0.00000000 1.00000000 -0.00000000 0.00000000 1.00000000 0.00000000 -0.08679245 0.99622643 0.00000000 -0.08679245 0.99622643 0.00000000 -0.18032786 0.98360658 0.00000000 -0.18032786 0.98360658 0.00000000 -0.28000000 0.95999998 0.00000000 -0.28000000 0.95999998 0.00000000 -0.38461539 0.92307693 0.00000000 -0.38461539 0.92307693 0.00000000 -0.49222797 0.87046629 0.00000000 -0.49222797 0.87046629 0.00000000 -0.60000002 0.80000001 0.00000000 -0.60000002 0.80000001 0.00000000 -0.70414203 0.71005917 0.00000000 -0.70414203 0.71005917 0.00000000 -0.80000001 0.60000002 0.00000000 -0.80000001 0.60000002 0.00000000 -0.82206404 0.56939501 0.00000000 -0.84320003 0.53759998 0.00000000 -0.84320003 0.53759998 0.00000000 -0.84320003 0.53759998 0.00000000 -0.88235295 0.47058824 0.00000000 -0.88235295 0.47058824 0.00000000 -0.91680533 0.39933443 0.00000000 -0.91680533 0.39933443 0.00000000 -0.94594604 0.32432434 0.00000000 -0.94594604 0.32432434 0.00000000 -0.96923077 0.24615385 0.00000000 -0.96923077 0.24615385 0.00000000 -0.98620689 0.16551724 0.00000000 -0.98620689 0.16551724 0.00000000 -0.99653381 0.08318891 0.00000000 -0.99653381 0.08318891 0.00000000 -1.00000000 0.00000000 0.00000000 -1.00000000 0.00000000 0.00000000 -0.99653381 -0.08318891 0.00000000 -0.99653381 -0.08318891 0.00000000 -0.98620689 -0.16551724 0.00000000 -0.98620689 -0.16551724 0.00000000 -0.96923077 -0.24615385 0.00000000 -0.96923077 -0.24615385 0.00000000 -0.94594604 -0.32432434 0.00000000 -0.94594604 -0.32432434 0.00000000 -0.91680533 -0.39933443 0.00000000 -0.91680533 -0.39933443 0.00000000 -0.88235295 -0.47058824 0.00000000 -0.88235295 -0.47058824 0.00000000 -0.84320003 -0.53759998 0.00000000 -0.84320003 -0.53759998 0.00000000 -0.80000001 -0.60000002 0.00000000 -0.80000001 -0.60000002 0.00000000 -0.70414203 -0.71005917 0.00000000 -0.70414203 -0.71005917 0.00000000 -0.60000002 -0.80000001 0.00000000 -0.60000002 -0.80000001 0.00000000 -0.49222797 -0.87046629 0.00000000 -0.49222797 -0.87046629 0.00000000 -0.38461539 -0.92307693 0.00000000 -0.38461539 -0.92307693 0.00000000 -0.28000000 -0.95999998 0.00000000 -0.28000000 -0.95999998 0.00000000 -0.18032786 -0.98360658 0.00000000 -0.18032786 -0.98360658 0.00000000 -0.08679245 -0.99622643 0.00000000 -0.08679245 -0.99622643 0.00000000 -0.08679245 -0.99622643 0.00000000 -0.00000000 -1.00000000 0.00000000 -0.00000000 -1.00000000 0.00000000 0.00000000 1.00000000 0.00000000 0.00000000 1.00000000 0.00000000 0.18032786 0.98360658 0.00000000 0.18032786 0.98360658 0.00000000 0.28000000 0.95999998 0.00000000 0.28000000 0.95999998 0.00000000 0.38461539 0.92307693 0.00000000 0.38461539 0.92307693 0.00000000 0.49222797 0.87046629 0.00000000 0.49222797 0.87046629 0.00000000 0.60000002 0.80000001 0.00000000 0.60000002 0.80000001 0.00000000 0.70414203 0.71005917 0.00000000 0.70414203 0.71005917 0.00000000 0.80000001 0.60000002 0.00000000 0.80000001 0.60000002 0.00000000 0.88235295 0.47058824 0.00000000 0.88235295 0.47058824 0.00000000 0.94594604 0.32432434 0.00000000 0.94594604 0.32432434 0.00000000 0.98620689 0.16551724 0.00000000 0.98620689 0.16551724 0.00000000 1.00000000 -0.00000000 0.00000000 1.00000000 -0.00000000 0.00000000 0.98620689 -0.16551724 0.00000000 0.98620689 -0.16551724 0.00000000 0.94594604 -0.32432434 0.00000000 0.94594604 -0.32432434 0.00000000 0.88235295 -0.47058824 0.00000000 0.88235295 -0.47058824 0.00000000 0.80000001 -0.60000002 0.00000000 0.80000001 -0.60000002 0.00000000 0.70414203 -0.71005917 0.00000000 0.70414203 -0.71005917 0.00000000 0.60000002 -0.80000001 0.00000000 0.60000002 -0.80000001 0.00000000 0.49222797 -0.87046629 0.00000000 0.49222797 -0.87046629 0.00000000 0.38461539 -0.92307693 0.00000000 0.38461539 -0.92307693 0.00000000 0.28000000 -0.95999998 0.00000000 0.28000000 -0.95999998 0.00000000 0.18032786 -0.98360658 0.00000000 0.18032786 -0.98360658 0.00000000 0.18032786 -0.98360658 -0.00000000 -0.00000000 -1.00000000 -0.00000000 -0.00000000 -1.00000000 -0.00000000 -0.00000000 -1.00000000 -0.00000000 -0.00000000 -1.00000000 -0.00000000 -0.18032786 -0.98360658 -0.00000000 -0.18032786 -0.98360658 -0.00000000 -0.28000000 -0.95999998 -0.00000000 -0.28000000 -0.95999998 -0.00000000 -0.38461539 -0.92307693 -0.00000000 -0.38461539 -0.92307693 -0.00000000 -0.49222797 -0.87046629 -0.00000000 -0.49222797 -0.87046629 -0.00000000 -0.60000002 -0.80000001 -0.00000000 -0.60000002 -0.80000001 -0.00000000 -0.70414203 -0.71005917 -0.00000000 -0.70414203 -0.71005917 -0.00000000 -0.80000001 -0.60000002 -0.00000000 -0.80000001 -0.60000002 -0.00000000 -0.88235295 -0.47058824 -0.00000000 -0.88235295 -0.47058824 -0.00000000 -0.94594604 -0.32432434 -0.00000000 -0.94594604 -0.32432434 -0.00000000 -0.98620689 -0.16551724 -0.00000000 -0.98620689 -0.16551724 -0.00000000 -1.00000000 -0.00000000 -0.00000000 -1.00000000 -0.00000000 0.00000000 -0.98620689 0.16551724 0.00000000 -0.98620689 0.16551724 0.00000000 -0.94594604 0.32432434 0.00000000 -0.94594604 0.32432434 0.00000000 -0.88235295 0.47058824 0.00000000 -0.88235295 0.47058824 0.00000000 -0.80000001 0.60000002 0.00000000 -0.80000001 0.60000002 0.00000000 -0.70414203 0.71005917 0.00000000 -0.70414203 0.71005917 0.00000000 -0.60000002 0.80000001 0.00000000 -0.60000002 0.80000001 0.00000000 -0.49222797 0.87046629 0.00000000 -0.49222797 0.87046629 0.00000000 -0.38461539 0.92307693 0.00000000 -0.38461539 0.92307693 0.00000000 -0.28000000 0.95999998 0.00000000 -0.28000000 0.95999998 0.00000000 -0.18032786 0.98360658 0.00000000 -0.18032786 0.98360658 0.00000000 -0.18032786 0.98360658 0.00000000 0.00000000 1.00000000 0.00000000 0.00000000 1.00000000</float_array>
					<technique_common>
						<accessor count="558" source="#_00000052879_v_10_iso_70891Geom-normals-array" stride="3">
							<param name="X" type="float"/>
							<param name="Y" type="float"/>
							<param name="Z" type="float"/>
						</accessor>
					</technique_common>
				</source>
				<vertices id="JtkTriStripSet1_Triangles-vertices">
					<input semantic="POSITION" source="#JtkTriStripSet1_Triangles-positions"/>
				</vertices>
				<triangles count="512" material="MaterialAFAFAF">
					<input offset="0" semantic="VERTEX" source="#JtkTriStripSet1_Triangles-vertices" set="0"/>
					<input offset="1" semantic="NORMAL" source="#_00000052879_v_10_iso_70891Geom-normals" set="0"/>
					<p>0 0 1 1 2 2 2 2 1 1 3 3 2 2 3 3 4 4 4 4 3 3 5 5 4 4 5 5 6 6 6 6 5 5 7 7 6 6 7 7 8 8 8 8 7 7 9 9 8 8 9 9 10 10 10 10 9 9 11 11 10 10 11 11 12 12 12 12 11 11 13 13 12 12 13 13 14 14 14 14 13 13 15 15 14 14 15 15 16 16 16 16 15 15 17 17 16 16 17 17 18 18 18 18 17 17 19 19 18 18 19 19 20 20 20 20 19 19 21 21 20 20 21 21 22 22 23 23 24 24 25 25 25 25 24 24 26 26 25 25 26 26 27 27 27 27 26 26 28 28 27 27 28 28 29 29 29 29 28 28 30 30 29 29 30 30 31 31 31 31 30 30 32 32 31 31 32 32 33 33 33 33 32 32 34 34 33 33 34 34 35 35 35 35 34 34 36 36 35 35 36 36 37 37 37 37 36 36 38 38 37 37 38 38 39 39 39 39 38 38 40 40 39 39 40 40 41 41 41 41 40 40 42 42 41 41 42 42 43 43 43 43 42 42 44 44 43 43 44 44 45 45 45 45 44 44 46 46 45 45 46 46 47 47 47 47 46 46 48 48 47 47 48 48 49 49 49 49 48 48 50 50 49 49 50 50 51 51 51 51 50 50 52 52 51 51 52 52 53 53 53 53 52 52 54 54 53 53 54 54 55 55 55 55 54 54 56 56 55 55 56 56 57 57 57 57 56 56 58 58 57 57 58 58 59 59 59 59 58 58 60 60 59 59 60 60 61 61 61 61 60 60 62 62 61 61 62 62 63 63 63 63 62 62 64 64 63 63 64 64 65 65 65 65 64 64 66 66 65 65 66 66 67 67 67 67 66 66 68 68 67 67 68 68 69 69 69 69 68 68 70 70 69 69 70 70 71 71 71 71 70 70 72 72 71 71 72 72 73 73 73 73 72 72 74 74 73 73 74 74 75 75 75 75 74 74 76 76 75 75 76 76 77 77 77 77 76 76 78 78 77 77 78 78 79 79 79 79 78 78 80 80 79 79 80 80 81 81 81 81 80 80 82 82 81 81 82 82 83 83 83 83 82 82 84 84 83 83 84 84 85 85 85 85 84 84 86 86 85 85 86 86 87 87 87 87 86 86 88 88 87 87 88 88 89 89 89 89 88 88 90 90 89 89 90 90 91 91 91 91 90 90 92 92 91 91 92 92 93 93 93 93 92 92 94 94 93 93 94 94 95 95 95 95 94 94 96 96 95 95 96 96 97 97 97 97 96 96 98 98 97 97 98 98 99 99 99 99 98 98 100 100 99 99 100 100 101 101 101 101 100 100 102 102 101 101 102 102 103 103 103 103 102 102 104 104 103 103 104 104 105 105 105 105 104 104 106 106 105 105 106 106 107 107 107 107 106 106 108 108 107 107 108 108 109 109 109 109 108 108 110 110 109 109 110 110 111 111 111 111 110 110 112 112 113 113 114 114 115 115 116 116 117 117 118 118 119 119 120 120 121 121 122 122 123 123 124 124 125 125 126 126 127 127 128 128 129 129 130 130 130 130 129 129 131 131 130 130 131 131 132 132 132 132 131 131 133 133 132 132 133 133 134 134 135 135 136 136 137 137 137 137 136 136 138 138 137 137 138 138 139 139 139 139 138 138 140 140 139 139 140 140 141 141 141 141 140 140 142 142 141 141 142 142 143 143 143 143 142 142 144 144 143 143 144 144 145 145 145 145 144 144 146 146 145 145 146 146 147 147 147 147 146 146 148 148 147 147 148 148 149 149 149 149 148 148 150 150 149 149 150 150 151 151 151 151 150 150 152 152 151 151 152 152 153 153 153 153 152 152 154 154 153 153 154 154 155 155 155 155 154 154 156 156 157 157 158 158 159 159 160 160 161 161 162 162 162 162 161 161 163 163 164 164 165 165 166 166 166 166 165 165 167 167 166 166 167 167 168 168 168 168 167 167 169 169 168 168 169 169 170 170 170 170 169 169 171 171 170 170 171 171 172 172 172 172 171 171 173 173 172 172 173 173 174 174 174 174 173 173 175 175 174 174 175 175 176 176 176 176 175 175 177 177 176 176 177 177 178 178 178 178 177 177 179 179 178 178 179 179 180 180 180 180 179 179 181 181 180 180 181 181 182 182 182 182 181 181 183 183 182 182 183 183 184 184 184 184 183 183 185 185 184 184 185 185 186 186 186 186 185 185 187 187 186 186 187 187 188 188 188 188 187 187 189 189 188 188 189 189 190 190 190 190 189 189 191 191 190 190 191 191 192 192 192 192 191 191 193 193 192 192 193 193 194 194 194 194 193 193 195 195 194 194 195 195 196 196 196 196 195 195 197 197 196 196 197 197 198 198 198 198 197 197 199 199 198 198 199 199 200 200 200 200 199 199 201 201 200 200 201 201 202 202 202 202 201 201 203 203 202 202 203 203 204 204 204 204 203 203 205 205 204 204 205 205 206 206 206 206 205 205 207 207 206 206 207 207 208 208 208 208 207 207 209 209 208 208 209 209 210 210 210 210 209 209 211 211 210 210 211 211 212 212 212 212 211 211 213 213 212 212 213 213 214 214 214 214 213 213 215 215 214 214 215 215 216 216 216 216 215 215 217 217 216 216 217 217 218 218 218 218 217 217 219 219 218 218 219 219 220 220 220 220 219 219 221 221 220 220 221 221 222 222 222 222 221 221 223 223 222 222 223 223 224 224 224 224 223 223 225 225 224 224 225 225 226 226 226 226 225 225 227 227 226 226 227 227 228 228 228 228 227 227 229 229 228 228 229 229 230 230 230 230 229 229 231 231 230 230 231 231 232 232 232 232 231 231 233 233 232 232 233 233 234 234 234 234 233 233 235 235 234 234 235 235 236 236 236 236 235 235 237 237 236 236 237 237 238 238 238 238 237 237 239 239 238 238 239 239 240 240 240 240 239 239 241 241 240 240 241 241 242 242 242 242 241 241 243 243 242 242 243 243 244 244 244 244 243 243 245 245 244 244 245 245 246 246 246 246 245 245 247 247 246 246 247 247 248 248 248 248 247 247 249 249 248 248 249 249 250 250 250 250 249 249 251 251 250 250 251 251 252 252 252 252 251 251 253 253 252 252 253 253 254 254 254 254 253 253 255 255 254 254 255 255 256 256 256 256 255 255 257 257 258 258 259 259 260 260 261 261 262 262 263 263 264 264 265 265 266 266 267 267 268 268 269 269 269 269 268 268 270 270 271 271 272 272 273 273 273 273 272 272 274 274 273 273 274 274 275 275 275 275 274 274 276 276 275 275 276 276 277 277 277 277 276 276 278 278 277 277 278 278 279 279 279 279 278 278 280 280 279 279 280 280 281 281 281 281 280 280 282 282 281 281 282 282 283 283 283 283 282 282 284 284 283 283 284 284 285 285 285 285 284 284 286 286 285 285 286 286 287 287 287 287 286 286 288 288 287 287 288 288 289 289 289 289 288 288 290 290 289 289 290 290 291 291 291 291 290 290 292 292 291 291 292 292 293 293 293 293 292 292 294 294 293 293 294 294 295 295 296 296 297 297 298 298 298 298 297 297 299 299 300 300 301 301 302 302 302 302 301 301 303 303 302 302 303 303 304 304 304 304 303 303 305 305 304 304 305 305 306 306 306 306 305 305 307 307 306 306 307 307 308 308 308 308 307 307 309 309 308 308 309 309 310 310 310 310 309 309 311 311 310 310 311 311 312 312 312 312 311 311 313 313 312 312 313 313 314 314 314 314 313 313 315 315 314 314 315 315 316 316 316 316 315 315 317 317 316 316 317 317 318 318 318 318 317 317 319 319 318 318 319 319 320 320 320 320 319 319 321 321 320 320 321 321 322 322 322 322 321 321 323 323 322 322 323 323 324 324 325 325 326 326 327 327 327 327 326 326 328 328 327 327 328 328 329 329 329 329 328 328 330 330 329 329 330 330 331 331 331 331 330 330 332 332 331 331 332 332 333 333 333 333 332 332 334 334 333 333 334 334 335 335 335 335 334 334 336 336 335 335 336 336 337 337 337 337 336 336 338 338 337 337 338 338 339 339 339 339 338 338 340 340 339 339 340 340 341 341 341 341 340 340 342 342 341 341 342 342 343 343 343 343 342 342 344 344 343 343 344 344 345 345 345 345 344 344 346 346 345 345 346 346 347 347 347 347 346 346 348 348 347 347 348 348 349 349 349 349 348 348 350 350 349 349 350 350 351 351 351 351 350 350 352 352 351 351 352 352 353 353 353 353 352 352 354 354 353 353 354 354 355 355 355 355 354 354 356 356 355 355 356 356 357 357 357 357 356 356 358 358 357 357 358 358 359 359 359 359 358 358 360 360 359 359 360 360 361 361 361 361 360 360 362 362 361 361 362 362 363 363 363 363 362 362 364 364 363 363 364 364 365 365 365 365 364 364 366 366 365 365 366 366 367 367 367 367 366 366 368 368 367 367 368 368 369 369 369 369 368 368 370 370 369 369 370 370 371 371 371 371 370 370 372 372 371 371 372 372 373 373 373 373 372 372 374 374 373 373 374 374 375 375 375 375 374 374 376 376 375 375 376 376 377 377 377 377 376 376 378 378 377 377 378 378 379 379 379 379 378 378 380 380 379 379 380 380 381 381 381 381 380 380 382 382 381 381 382 382 383 383 383 383 382 382 384 384 383 383 384 384 385 385 385 385 384 384 386 386 385 385 386 386 387 387 387 387 386 386 388 388 387 387 388 388 389 389 389 389 388 388 390 390 389 389 390 390 391 391 391 391 390 390 392 392 391 391 392 392 393 393 393 393 392 392 394 394 395 395 396 396 397 397 397 397 396 396 398 398 397 397 398 398 399 399 399 399 398 398 400 400 399 399 400 400 401 401 401 401 400 400 402 402 401 401 402 402 403 403 403 403 402 402 404 404 403 403 404 404 405 405 405 405 404 404 406 406 405 405 406 406 407 407 407 407 406 406 408 408 407 407 408 408 409 409 409 409 408 408 410 410 409 409 410 410 411 411 411 411 410 410 412 412 411 411 412 412 413 413 413 413 412 412 414 414 413 413 414 414 415 415 415 415 414 414 416 416 415 415 416 416 417 417 417 417 416 416 418 418 417 417 418 418 419 419 419 419 418 418 420 420 419 419 420 420 421 421 421 421 420 420 422 422 421 421 422 422 423 423 423 423 422 422 424 424 423 423 424 424 425 425 425 425 424 424 426 426 425 425 426 426 427 427 427 427 426 426 428 428 427 427 428 428 429 429 429 429 428 428 430 430 429 429 430 430 431 431 431 431 430 430 432 432 431 431 432 432 433 433 433 433 432 432 434 434 433 433 434 434 435 435 435 435 434 434 436 436 435 435 436 436 437 437 437 437 436 436 438 438 437 437 438 438 439 439 439 439 438 438 440 440 439 439 440 440 441 441 441 441 440 440 442 442 441 441 442 442 443 443 443 443 442 442 444 444 443 443 444 444 445 445 445 445 444 444 446 446 445 445 446 446 447 447 447 447 446 446 448 448 447 447 448 448 449 449 449 449 448 448 450 450 449 449 450 450 451 451 451 451 450 450 452 452 451 451 452 452 453 453 453 453 452 452 454 454 453 453 454 454 455 455 455 455 454 454 456 456 455 455 456 456 457 457 457 457 456 456 458 458 457 457 458 458 459 459 459 459 458 458 460 460 459 459 460 460 461 461 461 461 460 460 462 462 461 461 462 462 463 463 464 464 465 465 466 466 466 466 465 465 467 467 466 466 467 467 468 468 468 468 467 467 469 469 468 468 469 469 470 470 470 470 469 469 471 471 470 470 471 471 472 472 472 472 471 471 473 473 472 472 473 473 474 474 474 474 473 473 475 475 474 474 475 475 476 476 476 476 475 475 477 477 476 476 477 477 478 478 478 478 477 477 479 479 478 478 479 479 480 480 480 480 479 479 481 481 480 480 481 481 482 482 482 482 481 481 483 483 482 482 483 483 484 484 484 484 483 483 485 485 484 484 485 485 486 486 486 486 485 485 487 487 486 486 487 487 488 488 488 488 487 487 489 489 488 488 489 489 490 490 490 490 489 489 491 491 490 490 491 491 492 492 492 492 491 491 493 493 492 492 493 493 494 494 494 494 493 493 495 495 494 494 495 495 496 496 496 496 495 495 497 497 496 496 497 497 498 498 498 498 497 497 499 499 498 498 499 499 500 500 500 500 499 499 501 501 500 500 501 501 502 502 502 502 501 501 503 503 502 502 503 503 504 504 504 504 503 503 505 505 504 504 505 505 506 506 506 506 505 505 507 507 506 506 507 507 508 508 508 508 507 507 509 509 508 508 509 509 510 510 511 511 512 512 513 513 513 513 512 512 514 514 513 513 514 514 515 515 515 515 514 514 516 516 515 515 516 516 517 517 517 517 516 516 518 518 517 517 518 518 519 519 519 519 518 518 520 520 519 519 520 520 521 521 521 521 520 520 522 522 521 521 522 522 523 523 523 523 522 522 524 524 523 523 524 524 525 525 525 525 524 524 526 526 525 525 526 526 527 527 527 527 526 526 528 528 527 527 528 528 529 529 529 529 528 528 530 530 529 529 530 530 531 531 531 531 530 530 532 532 531 531 532 532 533 533 533 533 532 532 534 534 533 533 534 534 535 535 535 535 534 534 536 536 535 535 536 536 537 537 537 537 536 536 538 538 537 537 538 538 539 539 539 539 538 538 540 540 539 539 540 540 541 541 541 541 540 540 542 542 541 541 542 542 543 543 543 543 542 542 544 544 543 543 544 544 545 545 545 545 544 544 546 546 545 545 546 546 547 547 547 547 546 546 548 548 547 547 548 548 549 549 549 549 548 548 550 550 549 549 550 550 551 551 551 551 550 550 552 552 551 551 552 552 553 553 553 553 552 552 554 554 553 553 554 554 555 555 555 555 554 554 556 556 555 555 556 556 557 557</p>
				</triangles>
			</mesh>
		</geometry>
	</library_geometries>
	<library_nodes>
		<node id="_00000052879_v_10_iso_70891_Proto">
			<instance_geometry url="#_00000052879_v_10_iso_70891Geom">
				<bind_material>
					<technique_common>
						<instance_material symbol="MaterialAFAFAF" target="#ColorAFAFAF"/>
					</technique_common>
				</bind_material>
			</instance_geometry>
		</node>
	</library_nodes>
	<library_materials>
		<material id="ColorAFAFAF">
			<instance_effect url="#effectAFAFAF-fx"/>
		</material>
	</library_materials>
	<library_effects>
		<effect id="effectAFAFAF-fx">
			<profile_COMMON>
				<technique sid="common">
					<phong>
						<emission>
							<color>0.00000000 0.00000000 0.00000000 1.00000000</color>
						</emission>
						<ambient>
							<color>0.00000000 0.00000000 0.00000000 1.00000000</color>
						</ambient>
						<diffuse>
							<color>0.69000000 0.69000000 0.69000000 1.00000000</color>
						</diffuse>
						<specular>
							<color>0.50000000 0.50000000 0.50000000 1.00000000</color>
						</specular>
						<shininess>
							<float>16.00000000</float>
						</shininess>
						<reflective>
							<color>0.00000000 0.00000000 0.00000000 1.00000000</color>
						</reflective>
						<reflectivity>
							<float>0.50000000</float>
						</reflectivity>
						<transparent opaque="RGB_ZERO">
							<color>0.00000000 0.00000000 0.00000000 1.00000000</color>
						</transparent>
						<transparency>
							<float>1.00000000</float>
						</transparency>
						<index_of_refraction>
							<float>1.00000000</float>
						</index_of_refraction>
					</phong>
				</technique>
				<extra>
					<technique profile="GOOGLEEARTH">
						<double_sided>1</double_sided>
					</technique>
				</extra>
			</profile_COMMON>
		</effect>
	</library_effects>
	<scene>
		<instance_visual_scene url="#jtScene"/>
	</scene>
</COLLADA>
