<?xml version="1.0" encoding="UTF-8"?>
<COLLADA xmlns="http://www.collada.org/2005/11/COLLADASchema" version="1.4.1">
	<asset>
		<contributor>
			<author>Colin</author>
			<authoring_tool>Jt2Collada</authoring_tool>
			<copyright>Copyright 2011 Siemens Product Lifecycle Management Software Inc. All Rights Reserved.</copyright>
		</contributor>
		<created>2017-11-01T10:16:16Z</created>
		<modified>2017-11-01T10:16:16Z</modified>
		<unit meter="0.00100000" name="millimeters"/>
		<up_axis>Z_UP</up_axis>
	</asset>
	<library_visual_scenes>
		<visual_scene id="jtScene">
			<node>
				<translate>100.00000000 100.00000000 100.00000000</translate>
				<instance_light url="#sun"/>
			</node>
			<node>
				<translate>-100.00000000 -100.00000000 -100.00000000</translate>
				<instance_light url="#sun"/>
			</node>
			<node id="_99001180406_n_kompriband1">
				<matrix>1.00000000 0.00000000 0.00000000 0.00000000 0.00000000 1.00000000 0.00000000 0.00000000 0.00000000 0.00000000 1.00000000 0.00000000 0.00000000 0.00000000 0.00000000 1.00000000</matrix>
				<instance_node url="#_99001180406_n_kompriband1_Proto"/>
			</node>
		</visual_scene>
	</library_visual_scenes>
	<library_lights>
		<light id="sun">
			<technique_common>
				<point>
					<color>1.00000000 1.00000000 1.00000000</color>
					<constant_attenuation>1.00000000</constant_attenuation>
					<linear_attenuation>0.00000000</linear_attenuation>
					<quadratic_attenuation>0.00000000</quadratic_attenuation>
				</point>
			</technique_common>
		</light>
	</library_lights>
	<library_geometries>
		<geometry id="_99001180406_n_kompriband1Geom">
			<mesh>
				<source id="JtkTriStripSet1_Triangles-positions">
					<float_array id="JtkTriStripSet1_Triangles-positions-array" count="72">7.50000000 -7.50000000 -80.00000000 -7.50000000 -7.50000000 -80.00000000 7.50000000 7.50000000 -80.00000000 -7.50000000 7.50000000 -80.00000000 7.50000000 7.50000000 80.00000000 -7.50000000 7.50000000 80.00000000 7.50000000 -7.50000000 80.00000000 -7.50000000 -7.50000000 80.00000000 7.50000000 7.50000000 -80.00000000 7.50000000 7.50000000 80.00000000 7.50000000 -7.50000000 -80.00000000 7.50000000 -7.50000000 80.00000000 7.50000000 7.50000000 80.00000000 7.50000000 7.50000000 -80.00000000 -7.50000000 7.50000000 80.00000000 -7.50000000 7.50000000 -80.00000000 -7.50000000 7.50000000 80.00000000 -7.50000000 7.50000000 -80.00000000 -7.50000000 -7.50000000 80.00000000 -7.50000000 -7.50000000 -80.00000000 7.50000000 -7.50000000 -80.00000000 7.50000000 -7.50000000 80.00000000 -7.50000000 -7.50000000 -80.00000000 -7.50000000 -7.50000000 80.00000000</float_array>
					<technique_common>
						<accessor count="24" source="#JtkTriStripSet1_Triangles-positions-array" stride="3">
							<param name="X" type="float"/>
							<param name="Y" type="float"/>
							<param name="Z" type="float"/>
						</accessor>
					</technique_common>
				</source>
				<source id="_99001180406_n_kompriband1Geom-normals">
					<float_array id="_99001180406_n_kompriband1Geom-normals-array" count="72">0.00000000 0.00000000 -1.00000000 0.00000000 0.00000000 -1.00000000 0.00000000 0.00000000 -1.00000000 0.00000000 0.00000000 -1.00000000 0.00000000 0.00000000 1.00000000 0.00000000 0.00000000 1.00000000 0.00000000 0.00000000 1.00000000 0.00000000 0.00000000 1.00000000 1.00000000 0.00000000 0.00000000 1.00000000 0.00000000 0.00000000 1.00000000 0.00000000 0.00000000 1.00000000 0.00000000 0.00000000 0.00000000 1.00000000 -0.00000000 0.00000000 1.00000000 -0.00000000 0.00000000 1.00000000 -0.00000000 0.00000000 1.00000000 -0.00000000 -1.00000000 0.00000000 0.00000000 -1.00000000 0.00000000 0.00000000 -1.00000000 0.00000000 0.00000000 -1.00000000 0.00000000 0.00000000 0.00000000 -1.00000000 0.00000000 0.00000000 -1.00000000 0.00000000 0.00000000 -1.00000000 0.00000000 0.00000000 -1.00000000 0.00000000</float_array>
					<technique_common>
						<accessor count="24" source="#_99001180406_n_kompriband1Geom-normals-array" stride="3">
							<param name="X" type="float"/>
							<param name="Y" type="float"/>
							<param name="Z" type="float"/>
						</accessor>
					</technique_common>
				</source>
				<vertices id="JtkTriStripSet1_Triangles-vertices">
					<input semantic="POSITION" source="#JtkTriStripSet1_Triangles-positions"/>
				</vertices>
				<triangles count="12" material="MaterialFFFFFF">
					<input offset="0" semantic="VERTEX" source="#JtkTriStripSet1_Triangles-vertices" set="0"/>
					<input offset="1" semantic="NORMAL" source="#_99001180406_n_kompriband1Geom-normals" set="0"/>
					<p>0 0 1 1 2 2 2 2 1 1 3 3 4 4 5 5 6 6 6 6 5 5 7 7 8 8 9 9 10 10 10 10 9 9 11 11 12 12 13 13 14 14 14 14 13 13 15 15 16 16 17 17 18 18 18 18 17 17 19 19 20 20 21 21 22 22 22 22 21 21 23 23</p>
				</triangles>
			</mesh>
		</geometry>
	</library_geometries>
	<library_nodes>
		<node id="_99001180406_n_kompriband1_Proto">
			<instance_geometry url="#_99001180406_n_kompriband1Geom">
				<bind_material>
					<technique_common>
						<instance_material symbol="MaterialFFFFFF" target="#ColorFFFFFF"/>
					</technique_common>
				</bind_material>
			</instance_geometry>
		</node>
	</library_nodes>
	<library_materials>
		<material id="ColorFFFFFF">
			<instance_effect url="#effectFFFFFF-fx"/>
		</material>
	</library_materials>
	<library_effects>
		<effect id="effectFFFFFF-fx">
			<profile_COMMON>
				<technique sid="common">
					<phong>
						<emission>
							<color>0.00000000 0.00000000 0.00000000 1.00000000</color>
						</emission>
						<ambient>
							<color>0.00000000 0.00000000 0.00000000 1.00000000</color>
						</ambient>
						<diffuse>
							<color>1.00000000 1.00000000 1.00000000 1.00000000</color>
						</diffuse>
						<specular>
							<color>0.50000000 0.50000000 0.50000000 1.00000000</color>
						</specular>
						<shininess>
							<float>16.00000000</float>
						</shininess>
						<reflective>
							<color>0.00000000 0.00000000 0.00000000 1.00000000</color>
						</reflective>
						<reflectivity>
							<float>0.50000000</float>
						</reflectivity>
						<transparent opaque="RGB_ZERO">
							<color>0.00000000 0.00000000 0.00000000 1.00000000</color>
						</transparent>
						<transparency>
							<float>1.00000000</float>
						</transparency>
						<index_of_refraction>
							<float>1.00000000</float>
						</index_of_refraction>
					</phong>
				</technique>
				<extra>
					<technique profile="GOOGLEEARTH">
						<double_sided>1</double_sided>
					</technique>
				</extra>
			</profile_COMMON>
		</effect>
	</library_effects>
	<scene>
		<instance_visual_scene url="#jtScene"/>
	</scene>
</COLLADA>
