 Time	               Bundle ID	              Status	Comment
0.000	                       -	                   -	TALagent Started (system uptime: 798253.87 sec, current time: 534337206.02)
0.006	                       -	                   -	Liveness: 0 -> 1 (run_as_server)
0.019	                       -	                   -	Successfully read encryption key from keychain in 0.0131781 seconds
15.994	                       -	                   -	Liveness: 1 -> 0 (__run_as_server_block_invoke)
15.994	                       -	                   -	Exiting out of boredom
