 Time	               Bundle ID	              Status	Comment
0.000	                       -	                   -	TALagent Started (system uptime: 298991.29 sec, current time: 533495808.55)
0.020	                       -	                   -	Liveness: 0 -> 1 (run_as_server)
0.154	                       -	                   -	Successfully read encryption key from keychain in 0.13325 seconds
0.464	                       -	                   -	Liveness: 1 -> 2 (schedule_maintenance)
16.006	                       -	                   -	Liveness: 2 -> 1 (__run_as_server_block_invoke)
304.938	                       -	                   -	Liveness: 1 -> 2 (perform_all_maintenance)
304.938	                       -	                   -	Rotating key
304.952	                       -	                   -	Modified the encryption key in-place in the keychain
304.953	                       -	                   -	Liveness: 2 -> 3 (expire_or_reencrypt_bitmaps)
304.953	                       -	                   -	Liveness: 3 -> 4 (expiration_perform_maintenance)
304.953	                       -	                   -	Liveness: 4 -> 3 (perform_all_maintenance)
304.954	                       -	                   -	Liveness: 3 -> 2 (__schedule_maintenance_block_invoke)
304.956	                       -	                   -	Liveness: 2 -> 1 (__expiration_perform_maintenance_block_invoke)
304.960	                       -	                   -	Liveness: 1 -> 0 (__expire_or_reencrypt_bitmaps_block_invoke)
304.960	                       -	                   -	Exiting out of boredom
