 Time	               Bundle ID	              Status	Comment
0.000	                       -	                   -	TALagent Started (system uptime: 499751.08 sec, current time: 533732488.49)
0.024	                       -	                   -	Liveness: 0 -> 1 (run_as_server)
0.082	                       -	                   -	Successfully read encryption key from keychain in 0.05375 seconds
2947.674	                       -	                   -	Liveness: 1 -> 0 (__run_as_server_block_invoke)
2947.682	                       -	                   -	Exiting out of boredom
