 Time	               Bundle ID	              Status	Comment
0.000	                       -	                   -	TALagent Started (system uptime: 616990.70 sec, current time: 534084451.46)
0.021	                       -	                   -	Liveness: 0 -> 1 (run_as_server)
0.071	                       -	                   -	Successfully read encryption key from keychain in 0.047461 seconds
0.096	                       -	                   -	Liveness: 1 -> 2 (schedule_maintenance)
7211.693	                       -	                   -	Liveness: 2 -> 1 (__run_as_server_block_invoke)
17980.953	                       -	                   -	Liveness: 1 -> 2 (perform_all_maintenance)
17980.953	                       -	                   -	Rotating key
17980.965	                       -	                   -	Modified the encryption key in-place in the keychain
17980.966	                       -	                   -	Liveness: 2 -> 3 (expire_or_reencrypt_bitmaps)
17980.966	                       -	                   -	Liveness: 3 -> 4 (expiration_perform_maintenance)
17980.966	                       -	                   -	Liveness: 4 -> 3 (perform_all_maintenance)
17980.966	                       -	                   -	Liveness: 3 -> 2 (__schedule_maintenance_block_invoke)
17980.969	                       -	                   -	Liveness: 2 -> 1 (__expiration_perform_maintenance_block_invoke)
17980.973	                       -	                   -	Liveness: 1 -> 0 (__expire_or_reencrypt_bitmaps_block_invoke)
17980.973	                       -	                   -	Exiting out of boredom
