<?xml version="1.0" encoding="utf-8"?>
<!-- Generator: Adobe Illustrator 18.0.0, SVG Export Plug-In . SVG Version: 6.00 Build 0)  -->
<!DOCTYPE svg PUBLIC "-//W3C//DTD SVG 1.1//EN" "http://www.w3.org/Graphics/SVG/1.1/DTD/svg11.dtd">
<svg version="1.1" id="Layer_1" xmlns="http://www.w3.org/2000/svg" xmlns:xlink="http://www.w3.org/1999/xlink" x="0px" y="0px"
	 viewBox="0 0 100 100" enable-background="new 0 0 100 100" xml:space="preserve">
<g>
	<g>
		<path fill="#3B6F8D" d="M50,98.8c-13,0-25.3-5.1-34.5-14.3C6.3,75.3,1.2,63,1.2,50s5.1-25.3,14.3-34.5C24.7,6.3,37,1.2,50,1.2
			s25.3,5.1,34.5,14.3S98.8,37,98.8,50s-5.1,25.3-14.3,34.5C75.3,93.7,63,98.8,50,98.8z"/>
	</g>
	<g>
		<g enable-background="new    ">
			<path fill="#FFFFFF" d="M67.4,52.7c0,2.4-0.4,4.7-1.2,6.9s-2,4.1-3.5,5.6c-1.6,1.7-3.6,3-5.8,3.9s-4.7,1.4-7.5,1.4
				c-0.7,0-1.6-0.1-2.9-0.2c-1.3-0.1-2.4-0.4-3.5-0.8c-1.3-0.4-2.5-1.1-3.6-1.9s-2.1-1.9-3-3.2l6.7-28.9c0.1-0.3,0.1-0.6,0.2-0.9
				c0-0.3,0.1-0.5,0.1-0.7c0-0.6-0.1-1.1-0.3-1.5c-0.2-0.4-0.5-0.7-1-0.9c-0.4-0.2-0.9-0.4-1.5-0.5c-0.6-0.1-1.2-0.2-1.9-0.3l0.5-2
				l14.1-0.7l0.3,0.4l-4.1,17.4h0.2c0.4-0.3,0.9-0.7,1.3-1c0.5-0.3,1.1-0.7,1.9-1.2c0.6-0.3,1.4-0.6,2.4-0.9s1.9-0.4,2.7-0.4
				c3.1,0,5.4,0.9,7,2.7C66.6,47,67.4,49.5,67.4,52.7z M57.8,52.6c0-0.9-0.1-1.7-0.2-2.4c-0.1-0.7-0.3-1.4-0.7-1.9
				c-0.3-0.6-0.8-1-1.3-1.3c-0.5-0.3-1.2-0.5-2.1-0.5c-0.9,0-1.8,0.3-2.6,0.8c-0.8,0.5-1.6,1.1-2.2,1.8l-3.4,15
				c0,0.4,0.1,0.9,0.2,1.3c0.1,0.4,0.4,0.9,0.7,1.4c0.4,0.5,0.8,0.9,1.2,1.2c0.4,0.3,1,0.4,1.9,0.4c1.2,0,2.4-0.5,3.4-1.4
				c1.1-0.9,2-2.1,2.7-3.6c0.8-1.6,1.4-3.2,1.8-5C57.6,56.6,57.8,54.7,57.8,52.6z"/>
		</g>
	</g>
</g>
</svg>
