<?xml version="1.0" encoding="UTF-8"?>
<COLLADA xmlns="http://www.collada.org/2005/11/COLLADASchema" version="1.4.1">
	<asset>
		<contributor>
			<author>Colin</author>
			<authoring_tool>Jt2Collada</authoring_tool>
			<copyright>Copyright 2011 Siemens Product Lifecycle Management Software Inc. All Rights Reserved.</copyright>
		</contributor>
		<created>2017-11-01T10:15:29Z</created>
		<modified>2017-11-01T10:15:29Z</modified>
		<unit meter="0.00100000" name="millimeters"/>
		<up_axis>Z_UP</up_axis>
	</asset>
	<library_visual_scenes>
		<visual_scene id="jtScene">
			<node>
				<translate>100.00000000 100.00000000 100.00000000</translate>
				<instance_light url="#sun"/>
			</node>
			<node>
				<translate>-100.00000000 -100.00000000 -100.00000000</translate>
				<instance_light url="#sun"/>
			</node>
			<node id="_00031224166_v_70_2_kanten1">
				<matrix>1.00000000 0.00000000 0.00000000 0.00000000 0.00000000 1.00000000 0.00000000 0.00000000 0.00000000 0.00000000 1.00000000 0.00000000 0.00000000 0.00000000 0.00000000 1.00000000</matrix>
				<instance_node url="#_00031224166_v_70_2_kanten1_Proto"/>
			</node>
		</visual_scene>
	</library_visual_scenes>
	<library_lights>
		<light id="sun">
			<technique_common>
				<point>
					<color>1.00000000 1.00000000 1.00000000</color>
					<constant_attenuation>1.00000000</constant_attenuation>
					<linear_attenuation>0.00000000</linear_attenuation>
					<quadratic_attenuation>0.00000000</quadratic_attenuation>
				</point>
			</technique_common>
		</light>
	</library_lights>
	<library_geometries>
		<geometry id="_00031224166_v_70_2_kanten1Geom">
			<mesh>
				<source id="JtkTriStripSet1_Triangles-positions">
					<float_array id="JtkTriStripSet1_Triangles-positions-array" count="879">0.00000000 -9.45683575 -2.70937109 0.00000000 -9.33575439 -2.45089722 0.00000000 -9.49855328 -2.94622445 0.00000000 -9.33575439 -2.45089722 0.00000000 -9.46847534 -3.24910903 0.00000000 -9.20195580 -2.28777981 0.00000000 -9.38192463 -3.47139001 0.00000000 -9.20195580 -2.28777981 0.00000000 -9.21592331 -3.69817901 0.00000000 -8.97621250 -2.12066984 0.00000000 -8.97477913 -3.88010502 0.00000000 -8.75473309 -2.03298879 0.00000000 -8.62020588 -3.99274898 0.00000000 -8.75473309 -2.03298879 0.00000000 -0.60103130 -4.96374464 0.00000000 -4.83333349 -1.00000000 0.00000000 -0.60103130 -4.96374464 0.00000000 -1.30297935 -2.70226669 0.00000000 -0.60103130 -4.96374464 0.00000000 -0.43488276 -2.96831226 0.00000000 -0.60103130 -4.96374464 0.00000000 0.23640853 -2.99067068 0.00000000 0.70900476 -4.94947577 0.00000000 0.23640853 -2.99067068 0.00000000 2.07249999 -4.55024672 0.00000000 0.93307406 -2.85120559 0.00000000 2.07249999 -4.55024672 0.00000000 1.59547198 -2.54056478 0.00000000 2.07249999 -4.55024672 0.00000000 2.16298032 -2.07882547 0.00000000 3.31623602 -3.74200201 0.00000000 2.59118462 -1.51187360 0.00000000 3.31623602 -3.74200201 0.00000000 2.86260462 -0.89749342 0.00000000 3.31623602 -3.74200201 0.00000000 3.00000000 -0.00000000 -0.00000000 3.31623602 3.74200201 -0.00000000 2.86260462 0.89749342 -0.00000000 2.07249999 4.55024672 -0.00000000 2.59118462 1.51187360 -0.00000000 2.07249999 4.55024672 -0.00000000 2.16298032 2.07882547 -0.00000000 2.07249999 4.55024672 -0.00000000 1.59547198 2.54056478 -0.00000000 2.07249999 4.55024672 -0.00000000 0.93307406 2.85120559 -0.00000000 2.07249999 4.55024672 -0.00000000 0.23640853 2.99067068 -0.00000000 -0.60103130 4.96374464 -0.00000000 -0.43488276 2.96831226 -0.00000000 -0.60103130 4.96374464 -0.00000000 -1.30297935 2.70226669 -0.00000000 -0.60103130 4.96374464 -0.00000000 -4.83333349 1.00000000 -0.00000000 -0.60103130 4.96374464 -0.00000000 -8.75473309 2.03298879 -0.00000000 -8.62020588 3.99274898 -0.00000000 -9.09058762 2.19302678 -0.00000000 -9.09805012 3.80145860 -0.00000000 -9.30461121 2.40619755 -0.00000000 -9.09805012 3.80145860 -0.00000000 -9.43806553 2.65354276 -0.00000000 -9.25288296 3.65815449 -0.00000000 -9.49343109 2.88556552 -0.00000000 -9.40814781 3.41865015 -0.00000000 -9.48183823 3.18971896 -0.00000000 -0.60103130 4.96374464 -0.00000000 0.70900476 4.94947577 -0.00000000 2.07249999 4.55024672 -0.00000000 -8.85158920 3.93615437 -0.00000000 -8.62020588 3.99274898 -0.00000000 -9.09805012 3.80145860 -0.00000000 3.31623602 3.74200201 -0.00000000 4.26812506 2.60444021 0.00000000 3.31623602 -3.74200201 -0.00000000 4.26812506 2.60444021 0.00000000 4.26812506 -2.60444021 -0.00000000 4.82836008 1.29882169 0.00000000 4.82836008 -1.29882169 -0.00000000 5.00000000 0.00000000 70.00000000 0.70900476 -4.94947577 70.00000000 2.07249999 -4.55024672 70.00000000 -0.60103130 -4.96374464 70.00000000 0.23640853 -2.99067068 70.00000000 -0.60103130 -4.96374464 70.00000000 -0.43488276 -2.96831226 70.00000000 -0.60103130 -4.96374464 70.00000000 -1.30297935 -2.70226669 70.00000000 -0.60103130 -4.96374464 70.00000000 -4.83333349 -1.00000000 70.00000000 -0.60103130 -4.96374464 70.00000000 -8.75473309 -2.03298879 70.00000000 -8.62020588 -3.99274898 70.00000000 -8.97621250 -2.12066984 70.00000000 -8.97477913 -3.88010502 70.00000000 -9.20195580 -2.28777981 70.00000000 -8.97477913 -3.88010502 70.00000000 -9.33575439 -2.45089722 70.00000000 -9.21592331 -3.69817901 70.00000000 -9.45683575 -2.70937109 70.00000000 -9.38192463 -3.47139001 70.00000000 -9.49855328 -2.94622445 70.00000000 -9.46847534 -3.24910903 70.00000000 0.23640853 -2.99067068 70.00000000 2.07249999 -4.55024672 70.00000000 0.93307406 -2.85120559 70.00000000 2.07249999 -4.55024672 70.00000000 1.59547198 -2.54056478 70.00000000 2.07249999 -4.55024672 70.00000000 2.16298032 -2.07882547 70.00000000 2.72102737 -4.19475985 70.00000000 2.59118462 -1.51187360 70.00000000 2.72102737 -4.19475985 70.00000000 2.86260462 -0.89749342 70.00000000 3.31623602 -3.74200201 70.00000000 3.00000000 -0.00000000 70.00000000 3.31623602 3.74200201 70.00000000 2.86260462 0.89749342 70.00000000 3.31623602 3.74200201 70.00000000 2.59118462 1.51187360 70.00000000 2.07249999 4.55024672 70.00000000 2.16298032 2.07882547 70.00000000 2.07249999 4.55024672 70.00000000 1.59547198 2.54056478 70.00000000 2.07249999 4.55024672 70.00000000 0.93307406 2.85120559 70.00000000 2.07249999 4.55024672 70.00000000 0.23640853 2.99067068 70.00000000 0.70900476 4.94947577 70.00000000 -0.43488276 2.96831226 70.00000000 -0.60103130 4.96374464 70.00000000 -1.30297935 2.70226669 70.00000000 -0.60103130 4.96374464 70.00000000 -4.83333349 1.00000000 70.00000000 -0.60103130 4.96374464 70.00000000 -8.75473309 2.03298879 70.00000000 -8.62020588 3.99274898 70.00000000 -8.75473309 2.03298879 70.00000000 -8.85158920 3.93615437 70.00000000 -8.75473309 2.03298879 70.00000000 -9.09805012 3.80145860 70.00000000 -9.09058762 2.19302678 70.00000000 -9.25288296 3.65815449 70.00000000 -9.30461121 2.40619755 70.00000000 -9.40814781 3.41865015 70.00000000 -9.43806553 2.65354276 70.00000000 -9.48183823 3.18971896 70.00000000 -9.49343109 2.88556552 70.00000000 3.31623602 -3.74200201 70.00000000 4.26812506 -2.60444021 70.00000000 3.31623602 3.74200201 70.00000000 4.26812506 -2.60444021 70.00000000 4.26812506 2.60444021 70.00000000 4.82836008 -1.29882169 70.00000000 4.82836008 1.29882169 70.00000000 5.00000000 0.00000000 70.00000000 -0.60103130 -4.96374464 0.00000000 -0.60103130 -4.96374464 70.00000000 0.70900476 -4.94947577 0.00000000 0.70900476 -4.94947577 70.00000000 2.07249999 -4.55024672 0.00000000 2.07249999 -4.55024672 70.00000000 2.72102737 -4.19475985 0.00000000 3.31623602 -3.74200201 70.00000000 3.31623602 -3.74200201 0.00000000 3.31623602 -3.74200201 70.00000000 4.26812506 -2.60444021 0.00000000 4.26812506 -2.60444021 70.00000000 4.82836008 -1.29882169 0.00000000 4.82836008 -1.29882169 70.00000000 5.00000000 0.00000000 -0.00000000 5.00000000 0.00000000 70.00000000 4.82836008 1.29882169 -0.00000000 4.82836008 1.29882169 70.00000000 4.26812506 2.60444021 -0.00000000 4.26812506 2.60444021 70.00000000 3.31623602 3.74200201 -0.00000000 3.31623602 3.74200201 70.00000000 2.07249999 4.55024672 -0.00000000 2.07249999 4.55024672 70.00000000 0.70900476 4.94947577 -0.00000000 0.70900476 4.94947577 70.00000000 0.70900476 4.94947577 -0.00000000 -0.60103130 4.96374464 70.00000000 -0.60103130 4.96374464 70.00000000 -0.60103130 4.96374464 -0.00000000 -0.60103130 4.96374464 70.00000000 -8.62020588 3.99274898 -0.00000000 -8.62020588 3.99274898 70.00000000 -8.75473309 2.03298879 70.00000000 -9.09058762 2.19302678 -0.00000000 -8.75473309 2.03298879 70.00000000 -9.09058762 2.19302678 -0.00000000 -9.09058762 2.19302678 70.00000000 -9.09058762 2.19302678 -0.00000000 -9.30461121 2.40619755 70.00000000 -9.30461121 2.40619755 -0.00000000 -9.43806553 2.65354276 70.00000000 -9.43806553 2.65354276 -0.00000000 -9.49343109 2.88556552 70.00000000 -9.49343109 2.88556552 -0.00000000 -9.48183823 3.18971896 70.00000000 -9.48183823 3.18971896 -0.00000000 -9.40814781 3.41865015 70.00000000 -9.40814781 3.41865015 -0.00000000 -9.25288296 3.65815449 70.00000000 -9.25288296 3.65815449 -0.00000000 -9.09805012 3.80145860 70.00000000 -9.09805012 3.80145860 -0.00000000 -8.85158920 3.93615437 70.00000000 -8.85158920 3.93615437 -0.00000000 -8.62020588 3.99274898 70.00000000 -8.62020588 3.99274898 70.00000000 -8.75473309 2.03298879 -0.00000000 -8.75473309 2.03298879 70.00000000 -4.83333349 1.00000000 -0.00000000 -4.83333349 1.00000000 70.00000000 -4.83333349 1.00000000 -0.00000000 -4.83333349 1.00000000 70.00000000 -1.30297935 2.70226669 -0.00000000 -1.30297935 2.70226669 70.00000000 -1.30297935 -2.70226669 70.00000000 -0.43488276 -2.96831226 0.00000000 -1.30297935 -2.70226669 70.00000000 -0.43488276 -2.96831226 0.00000000 -0.43488276 -2.96831226 70.00000000 -0.43488276 -2.96831226 0.00000000 0.23640853 -2.99067068 70.00000000 0.23640853 -2.99067068 0.00000000 0.93307406 -2.85120559 70.00000000 0.93307406 -2.85120559 0.00000000 1.59547198 -2.54056478 70.00000000 1.59547198 -2.54056478 0.00000000 2.16298032 -2.07882547 70.00000000 2.16298032 -2.07882547 0.00000000 2.59118462 -1.51187360 70.00000000 2.59118462 -1.51187360 0.00000000 2.86260462 -0.89749342 70.00000000 2.86260462 -0.89749342 0.00000000 3.00000000 -0.00000000 70.00000000 3.00000000 -0.00000000 -0.00000000 2.86260462 0.89749342 70.00000000 2.86260462 0.89749342 -0.00000000 2.59118462 1.51187360 70.00000000 2.59118462 1.51187360 -0.00000000 2.16298032 2.07882547 70.00000000 2.16298032 2.07882547 -0.00000000 1.59547198 2.54056478 70.00000000 1.59547198 2.54056478 -0.00000000 0.93307406 2.85120559 70.00000000 0.93307406 2.85120559 -0.00000000 0.23640853 2.99067068 70.00000000 0.23640853 2.99067068 -0.00000000 -0.43488276 2.96831226 70.00000000 -0.43488276 2.96831226 -0.00000000 -1.30297935 2.70226669 70.00000000 -1.30297935 2.70226669 0.00000000 -4.83333349 -1.00000000 70.00000000 -4.83333349 -1.00000000 0.00000000 -1.30297935 -2.70226669 70.00000000 -1.30297935 -2.70226669 0.00000000 -8.75473309 -2.03298879 70.00000000 -8.75473309 -2.03298879 0.00000000 -4.83333349 -1.00000000 70.00000000 -4.83333349 -1.00000000 70.00000000 -8.62020588 -3.99274898 70.00000000 -8.97477913 -3.88010502 0.00000000 -8.62020588 -3.99274898 70.00000000 -8.97477913 -3.88010502 0.00000000 -8.97477913 -3.88010502 70.00000000 -8.97477913 -3.88010502 0.00000000 -9.21592331 -3.69817901 70.00000000 -9.21592331 -3.69817901 0.00000000 -9.38192463 -3.47139001 70.00000000 -9.38192463 -3.47139001 0.00000000 -9.46847534 -3.24910903 70.00000000 -9.46847534 -3.24910903 0.00000000 -9.49855328 -2.94622445 70.00000000 -9.49855328 -2.94622445 0.00000000 -9.45683575 -2.70937109 70.00000000 -9.45683575 -2.70937109 0.00000000 -9.33575439 -2.45089722 70.00000000 -9.33575439 -2.45089722 0.00000000 -9.20195580 -2.28777981 70.00000000 -9.20195580 -2.28777981 0.00000000 -8.97621250 -2.12066984 70.00000000 -8.97621250 -2.12066984 0.00000000 -8.75473309 -2.03298879 70.00000000 -8.75473309 -2.03298879 70.00000000 -8.62020588 -3.99274898 0.00000000 -8.62020588 -3.99274898 70.00000000 -0.60103130 -4.96374464 0.00000000 -0.60103130 -4.96374464</float_array>
					<technique_common>
						<accessor count="293" source="#JtkTriStripSet1_Triangles-positions-array" stride="3">
							<param name="X" type="float"/>
							<param name="Y" type="float"/>
							<param name="Z" type="float"/>
						</accessor>
					</technique_common>
				</source>
				<source id="_00031224166_v_70_2_kanten1Geom-normals">
					<float_array id="_00031224166_v_70_2_kanten1Geom-normals-array" count="879">-1.00000000 -0.00000000 -0.00000000 -1.00000000 0.00000000 -0.00000000 -1.00000000 -0.00000000 -0.00000000 -1.00000000 0.00000000 -0.00000000 -1.00000000 0.00000000 -0.00000000 -1.00000000 0.00000000 -0.00000000 -1.00000000 -0.00000000 -0.00000000 -1.00000000 0.00000000 -0.00000000 -1.00000000 -0.00000000 -0.00000000 -1.00000000 -0.00000000 -0.00000000 -1.00000000 0.00000000 -0.00000000 -1.00000000 -0.00000000 -0.00000000 -1.00000000 0.00000000 -0.00000000 -1.00000000 -0.00000000 -0.00000000 -1.00000000 0.00000000 -0.00000000 -1.00000000 0.00000000 -0.00000000 -1.00000000 0.00000000 -0.00000000 -1.00000000 -0.00000000 -0.00000000 -1.00000000 0.00000000 -0.00000000 -1.00000000 -0.00000000 -0.00000000 -1.00000000 0.00000000 -0.00000000 -1.00000000 -0.00000000 -0.00000000 -1.00000000 -0.00000000 -0.00000000 -1.00000000 -0.00000000 -0.00000000 -1.00000000 -0.00000000 -0.00000000 -1.00000000 -0.00000000 -0.00000000 -1.00000000 -0.00000000 -0.00000000 -1.00000000 0.00000000 -0.00000000 -1.00000000 -0.00000000 -0.00000000 -1.00000000 -0.00000000 -0.00000000 -1.00000000 0.00000000 -0.00000000 -1.00000000 0.00000000 -0.00000000 -1.00000000 0.00000000 -0.00000000 -1.00000000 0.00000000 -0.00000000 -1.00000000 0.00000000 -0.00000000 -1.00000000 -0.00000000 -0.00000000 -1.00000000 -0.00000000 -0.00000000 -1.00000000 0.00000000 -0.00000000 -1.00000000 0.00000000 -0.00000000 -1.00000000 0.00000000 -0.00000000 -1.00000000 0.00000000 -0.00000000 -1.00000000 0.00000000 -0.00000000 -1.00000000 0.00000000 -0.00000000 -1.00000000 -0.00000000 -0.00000000 -1.00000000 0.00000000 -0.00000000 -1.00000000 -0.00000000 -0.00000000 -1.00000000 0.00000000 -0.00000000 -1.00000000 0.00000000 -0.00000000 -1.00000000 0.00000000 -0.00000000 -1.00000000 -0.00000000 -0.00000000 -1.00000000 0.00000000 -0.00000000 -1.00000000 0.00000000 -0.00000000 -1.00000000 0.00000000 -0.00000000 -1.00000000 -0.00000000 -0.00000000 -1.00000000 0.00000000 -0.00000000 -1.00000000 0.00000000 -0.00000000 -1.00000000 0.00000000 -0.00000000 -1.00000000 0.00000000 -0.00000000 -1.00000000 -0.00000000 -0.00000000 -1.00000000 -0.00000000 -0.00000000 -1.00000000 -0.00000000 -0.00000000 -1.00000000 0.00000000 -0.00000000 -1.00000000 -0.00000000 -0.00000000 -1.00000000 -0.00000000 -0.00000000 -1.00000000 -0.00000000 -0.00000000 -1.00000000 0.00000000 -0.00000000 -1.00000000 0.00000000 -0.00000000 -1.00000000 -0.00000000 -0.00000000 -1.00000000 0.00000000 -0.00000000 -1.00000000 -0.00000000 -0.00000000 -1.00000000 0.00000000 -0.00000000 -1.00000000 -0.00000000 -0.00000000 -1.00000000 -0.00000000 -0.00000000 -1.00000000 0.00000000 -0.00000000 -1.00000000 0.00000000 -0.00000000 -1.00000000 0.00000000 -0.00000000 -1.00000000 0.00000000 -0.00000000 -1.00000000 -0.00000000 -0.00000000 -1.00000000 -0.00000000 -0.00000000 -1.00000000 -0.00000000 -0.00000000 1.00000000 0.00000000 0.00000000 1.00000000 0.00000000 0.00000000 1.00000000 0.00000000 -0.00000000 1.00000000 -0.00000000 -0.00000000 1.00000000 0.00000000 -0.00000000 1.00000000 0.00000000 0.00000000 1.00000000 0.00000000 -0.00000000 1.00000000 -0.00000000 0.00000000 1.00000000 0.00000000 -0.00000000 1.00000000 -0.00000000 0.00000000 1.00000000 0.00000000 -0.00000000 1.00000000 0.00000000 -0.00000000 1.00000000 0.00000000 -0.00000000 1.00000000 0.00000000 0.00000000 1.00000000 0.00000000 -0.00000000 1.00000000 0.00000000 -0.00000000 1.00000000 0.00000000 -0.00000000 1.00000000 0.00000000 0.00000000 1.00000000 -0.00000000 0.00000000 1.00000000 0.00000000 -0.00000000 1.00000000 0.00000000 0.00000000 1.00000000 0.00000000 0.00000000 1.00000000 0.00000000 0.00000000 1.00000000 -0.00000000 -0.00000000 1.00000000 0.00000000 0.00000000 1.00000000 -0.00000000 -0.00000000 1.00000000 0.00000000 0.00000000 1.00000000 0.00000000 0.00000000 1.00000000 0.00000000 0.00000000 1.00000000 -0.00000000 0.00000000 1.00000000 0.00000000 0.00000000 1.00000000 0.00000000 -0.00000000 1.00000000 0.00000000 0.00000000 1.00000000 -0.00000000 0.00000000 1.00000000 -0.00000000 0.00000000 1.00000000 0.00000000 -0.00000000 1.00000000 0.00000000 -0.00000000 1.00000000 0.00000000 -0.00000000 1.00000000 0.00000000 -0.00000000 1.00000000 -0.00000000 0.00000000 1.00000000 0.00000000 -0.00000000 1.00000000 -0.00000000 -0.00000000 1.00000000 0.00000000 -0.00000000 1.00000000 -0.00000000 -0.00000000 1.00000000 0.00000000 -0.00000000 1.00000000 -0.00000000 -0.00000000 1.00000000 0.00000000 -0.00000000 1.00000000 -0.00000000 0.00000000 1.00000000 -0.00000000 0.00000000 1.00000000 -0.00000000 0.00000000 1.00000000 -0.00000000 -0.00000000 1.00000000 0.00000000 -0.00000000 1.00000000 -0.00000000 -0.00000000 1.00000000 0.00000000 -0.00000000 1.00000000 -0.00000000 -0.00000000 1.00000000 -0.00000000 0.00000000 1.00000000 0.00000000 0.00000000 1.00000000 -0.00000000 0.00000000 1.00000000 0.00000000 -0.00000000 1.00000000 -0.00000000 0.00000000 1.00000000 0.00000000 -0.00000000 1.00000000 0.00000000 0.00000000 1.00000000 0.00000000 -0.00000000 1.00000000 -0.00000000 -0.00000000 1.00000000 0.00000000 0.00000000 1.00000000 0.00000000 -0.00000000 1.00000000 0.00000000 -0.00000000 1.00000000 0.00000000 0.00000000 1.00000000 -0.00000000 0.00000000 1.00000000 -0.00000000 0.00000000 1.00000000 0.00000000 -0.00000000 1.00000000 -0.00000000 0.00000000 1.00000000 0.00000000 -0.00000000 1.00000000 -0.00000000 0.00000000 1.00000000 0.00000000 0.00000000 1.00000000 -0.00000000 0.00000000 0.00000000 -0.12020626 -0.99274892 0.00000000 -0.12020626 -0.99274892 0.00000000 0.14180095 -0.98989516 0.00000000 0.14180095 -0.98989516 0.00000000 0.41450000 -0.91004932 0.00000000 0.41450000 -0.91004932 0.00000000 0.54420549 -0.83895195 0.00000000 0.66324723 -0.74840039 0.00000000 0.66324723 -0.74840039 0.00000000 0.66324723 -0.74840039 -0.00000000 0.85362500 -0.52088803 0.00000000 0.85362500 -0.52088803 0.00000000 0.96567202 -0.25976434 0.00000000 0.96567202 -0.25976434 0.00000000 1.00000000 0.00000000 0.00000000 1.00000000 0.00000000 0.00000000 0.96567202 0.25976434 0.00000000 0.96567202 0.25976434 0.00000000 0.85362500 0.52088803 0.00000000 0.85362500 0.52088803 0.00000000 0.66324723 0.74840039 0.00000000 0.66324723 0.74840039 0.00000000 0.41450000 0.91004932 0.00000000 0.41450000 0.91004932 0.00000000 0.14180095 0.98989516 0.00000000 0.14180095 0.98989516 0.00000000 0.14180095 0.98989516 0.00000000 -0.12020626 0.99274892 0.00000000 -0.12020626 0.99274892 -0.00000000 -0.12020626 0.99274892 -0.00000000 -0.12020626 0.99274892 -0.00000000 -0.12020626 0.99274892 -0.00000000 -0.12020626 0.99274892 -0.00000000 -0.25473344 -0.96701133 -0.00000000 -0.59058791 -0.80697334 -0.00000000 -0.25473344 -0.96701133 -0.00000000 -0.59058791 -0.80697334 -0.00000000 -0.59058791 -0.80697334 -0.00000000 -0.59058791 -0.80697334 0.00000000 -0.80461091 -0.59380239 -0.00000000 -0.80461091 -0.59380239 0.00000000 -0.93806577 -0.34645730 -0.00000000 -0.93806577 -0.34645730 0.00000000 -0.99343079 -0.11443456 0.00000000 -0.99343079 -0.11443456 -0.00000000 -0.98183841 0.18971898 -0.00000000 -0.98183841 0.18971898 -0.00000000 -0.90814763 0.41865009 -0.00000000 -0.90814763 0.41865009 0.00000000 -0.75288302 0.65815437 0.00000000 -0.75288302 0.65815437 -0.00000000 -0.59805012 0.80145872 -0.00000000 -0.59805012 0.80145872 -0.00000000 -0.35158908 0.93615443 -0.00000000 -0.35158908 0.93615443 -0.00000000 -0.12020626 0.99274892 -0.00000000 -0.12020626 0.99274892 0.00000000 -0.25473344 -0.96701133 0.00000000 -0.25473344 -0.96701133 0.00000000 -0.25473344 -0.96701133 0.00000000 -0.25473344 -0.96701133 0.00000000 0.43432644 -0.90075552 0.00000000 0.43432644 -0.90075552 0.00000000 0.43432644 -0.90075552 0.00000000 0.43432644 -0.90075552 -0.00000000 0.43432644 0.90075552 -0.00000000 0.14496092 0.98943740 -0.00000000 0.43432644 0.90075552 -0.00000000 0.14496092 0.98943740 -0.00000000 0.14496092 0.98943740 -0.00000000 0.14496092 0.98943740 -0.00000000 -0.07880285 0.99689025 -0.00000000 -0.07880285 0.99689025 -0.00000000 -0.31102470 0.95040184 -0.00000000 -0.31102470 0.95040184 -0.00000000 -0.53182399 0.84685493 -0.00000000 -0.53182399 0.84685493 -0.00000000 -0.72099346 0.69294184 -0.00000000 -0.72099346 0.69294184 -0.00000000 -0.86372823 0.50395787 -0.00000000 -0.86372823 0.50395787 -0.00000000 -0.95420158 0.29916447 -0.00000000 -0.95420158 0.29916447 -0.00000000 -1.00000000 0.00000000 -0.00000000 -1.00000000 0.00000000 -0.00000000 -0.95420158 -0.29916447 -0.00000000 -0.95420158 -0.29916447 -0.00000000 -0.86372823 -0.50395787 -0.00000000 -0.86372823 -0.50395787 -0.00000000 -0.72099346 -0.69294184 -0.00000000 -0.72099346 -0.69294184 0.00000000 -0.53182399 -0.84685493 -0.00000000 -0.53182399 -0.84685493 -0.00000000 -0.31102470 -0.95040184 0.00000000 -0.31102470 -0.95040184 0.00000000 -0.07880285 -0.99689025 -0.00000000 -0.07880285 -0.99689025 0.00000000 0.14496092 -0.98943740 0.00000000 0.14496092 -0.98943740 0.00000000 0.43432644 -0.90075552 0.00000000 0.43432644 -0.90075552 -0.00000000 0.43432644 0.90075552 -0.00000000 0.43432644 0.90075552 -0.00000000 0.43432644 0.90075552 -0.00000000 0.43432644 0.90075552 -0.00000000 -0.25473344 0.96701133 -0.00000000 -0.25473344 0.96701133 -0.00000000 -0.25473344 0.96701133 -0.00000000 -0.25473344 0.96701133 -0.00000000 -0.12020626 -0.99274892 -0.00000000 -0.47477886 -0.88010514 -0.00000000 -0.12020626 -0.99274892 -0.00000000 -0.47477886 -0.88010514 -0.00000000 -0.47477886 -0.88010514 -0.00000000 -0.47477886 -0.88010514 -0.00000000 -0.71592325 -0.69817907 -0.00000000 -0.71592325 -0.69817907 -0.00000000 -0.88192481 -0.47139004 -0.00000000 -0.88192481 -0.47139004 -0.00000000 -0.96847546 -0.24910906 -0.00000000 -0.96847546 -0.24910906 0.00000000 -0.99855304 0.05377557 -0.00000000 -0.99855304 0.05377557 0.00000000 -0.95683587 0.29062882 -0.00000000 -0.95683587 0.29062882 -0.00000000 -0.83575481 0.54910278 -0.00000000 -0.83575481 0.54910278 -0.00000000 -0.70195621 0.71222013 0.00000000 -0.70195621 0.71222013 -0.00000000 -0.47621250 0.87933022 -0.00000000 -0.47621250 0.87933022 -0.00000000 -0.25473344 0.96701133 -0.00000000 -0.25473344 0.96701133 0.00000000 -0.12020626 -0.99274892 0.00000000 -0.12020626 -0.99274892 0.00000000 -0.12020626 -0.99274892 0.00000000 -0.12020626 -0.99274892</float_array>
					<technique_common>
						<accessor count="293" source="#_00031224166_v_70_2_kanten1Geom-normals-array" stride="3">
							<param name="X" type="float"/>
							<param name="Y" type="float"/>
							<param name="Z" type="float"/>
						</accessor>
					</technique_common>
				</source>
				<vertices id="JtkTriStripSet1_Triangles-vertices">
					<input semantic="POSITION" source="#JtkTriStripSet1_Triangles-positions"/>
				</vertices>
				<triangles count="259" material="MaterialAFAFAF">
					<input offset="0" semantic="VERTEX" source="#JtkTriStripSet1_Triangles-vertices" set="0"/>
					<input offset="1" semantic="NORMAL" source="#_00031224166_v_70_2_kanten1Geom-normals" set="0"/>
					<p>0 0 1 1 2 2 2 2 1 1 3 3 2 2 3 3 4 4 4 4 3 3 5 5 4 4 5 5 6 6 6 6 5 5 7 7 6 6 7 7 8 8 8 8 7 7 9 9 8 8 9 9 10 10 10 10 9 9 11 11 10 10 11 11 12 12 12 12 11 11 13 13 12 12 13 13 14 14 14 14 13 13 15 15 14 14 15 15 16 16 16 16 15 15 17 17 16 16 17 17 18 18 18 18 17 17 19 19 18 18 19 19 20 20 20 20 19 19 21 21 20 20 21 21 22 22 22 22 21 21 23 23 22 22 23 23 24 24 24 24 23 23 25 25 24 24 25 25 26 26 26 26 25 25 27 27 26 26 27 27 28 28 28 28 27 27 29 29 28 28 29 29 30 30 30 30 29 29 31 31 30 30 31 31 32 32 32 32 31 31 33 33 32 32 33 33 34 34 34 34 33 33 35 35 34 34 35 35 36 36 36 36 35 35 37 37 36 36 37 37 38 38 38 38 37 37 39 39 38 38 39 39 40 40 40 40 39 39 41 41 40 40 41 41 42 42 42 42 41 41 43 43 42 42 43 43 44 44 44 44 43 43 45 45 44 44 45 45 46 46 46 46 45 45 47 47 46 46 47 47 48 48 48 48 47 47 49 49 48 48 49 49 50 50 50 50 49 49 51 51 50 50 51 51 52 52 52 52 51 51 53 53 52 52 53 53 54 54 54 54 53 53 55 55 54 54 55 55 56 56 56 56 55 55 57 57 56 56 57 57 58 58 58 58 57 57 59 59 58 58 59 59 60 60 60 60 59 59 61 61 60 60 61 61 62 62 62 62 61 61 63 63 62 62 63 63 64 64 64 64 63 63 65 65 66 66 67 67 68 68 69 69 70 70 71 71 72 72 73 73 74 74 74 74 73 73 75 75 74 74 75 75 76 76 76 76 75 75 77 77 76 76 77 77 78 78 78 78 77 77 79 79 80 80 81 81 82 82 82 82 81 81 83 83 82 82 83 83 84 84 84 84 83 83 85 85 84 84 85 85 86 86 86 86 85 85 87 87 86 86 87 87 88 88 88 88 87 87 89 89 88 88 89 89 90 90 90 90 89 89 91 91 90 90 91 91 92 92 92 92 91 91 93 93 92 92 93 93 94 94 94 94 93 93 95 95 94 94 95 95 96 96 96 96 95 95 97 97 96 96 97 97 98 98 98 98 97 97 99 99 98 98 99 99 100 100 100 100 99 99 101 101 100 100 101 101 102 102 103 103 104 104 105 105 105 105 104 104 106 106 105 105 106 106 107 107 107 107 106 106 108 108 107 107 108 108 109 109 109 109 108 108 110 110 109 109 110 110 111 111 111 111 110 110 112 112 111 111 112 112 113 113 113 113 112 112 114 114 113 113 114 114 115 115 115 115 114 114 116 116 115 115 116 116 117 117 117 117 116 116 118 118 117 117 118 118 119 119 119 119 118 118 120 120 119 119 120 120 121 121 121 121 120 120 122 122 121 121 122 122 123 123 123 123 122 122 124 124 123 123 124 124 125 125 125 125 124 124 126 126 125 125 126 126 127 127 127 127 126 126 128 128 127 127 128 128 129 129 129 129 128 128 130 130 129 129 130 130 131 131 131 131 130 130 132 132 131 131 132 132 133 133 133 133 132 132 134 134 133 133 134 134 135 135 135 135 134 134 136 136 135 135 136 136 137 137 137 137 136 136 138 138 137 137 138 138 139 139 139 139 138 138 140 140 139 139 140 140 141 141 141 141 140 140 142 142 141 141 142 142 143 143 143 143 142 142 144 144 143 143 144 144 145 145 145 145 144 144 146 146 145 145 146 146 147 147 148 148 149 149 150 150 150 150 149 149 151 151 150 150 151 151 152 152 152 152 151 151 153 153 152 152 153 153 154 154 154 154 153 153 155 155 156 156 157 157 158 158 158 158 157 157 159 159 158 158 159 159 160 160 160 160 159 159 161 161 160 160 161 161 162 162 162 162 161 161 163 163 162 162 163 163 164 164 164 164 163 163 165 165 164 164 165 165 166 166 166 166 165 165 167 167 166 166 167 167 168 168 168 168 167 167 169 169 168 168 169 169 170 170 170 170 169 169 171 171 170 170 171 171 172 172 172 172 171 171 173 173 172 172 173 173 174 174 174 174 173 173 175 175 174 174 175 175 176 176 176 176 175 175 177 177 176 176 177 177 178 178 178 178 177 177 179 179 178 178 179 179 180 180 180 180 179 179 181 181 180 180 181 181 182 182 182 182 181 181 183 183 182 182 183 183 184 184 185 185 186 186 187 187 187 187 186 186 188 188 189 189 190 190 191 191 191 191 190 190 192 192 191 191 192 192 193 193 193 193 192 192 194 194 193 193 194 194 195 195 195 195 194 194 196 196 195 195 196 196 197 197 197 197 196 196 198 198 197 197 198 198 199 199 199 199 198 198 200 200 199 199 200 200 201 201 201 201 200 200 202 202 201 201 202 202 203 203 203 203 202 202 204 204 203 203 204 204 205 205 205 205 204 204 206 206 205 205 206 206 207 207 207 207 206 206 208 208 207 207 208 208 209 209 209 209 208 208 210 210 209 209 210 210 211 211 211 211 210 210 212 212 213 213 214 214 215 215 215 215 214 214 216 216 217 217 218 218 219 219 219 219 218 218 220 220 221 221 222 222 223 223 223 223 222 222 224 224 223 223 224 224 225 225 225 225 224 224 226 226 225 225 226 226 227 227 227 227 226 226 228 228 227 227 228 228 229 229 229 229 228 228 230 230 229 229 230 230 231 231 231 231 230 230 232 232 231 231 232 232 233 233 233 233 232 232 234 234 233 233 234 234 235 235 235 235 234 234 236 236 235 235 236 236 237 237 237 237 236 236 238 238 237 237 238 238 239 239 239 239 238 238 240 240 239 239 240 240 241 241 241 241 240 240 242 242 241 241 242 242 243 243 243 243 242 242 244 244 243 243 244 244 245 245 245 245 244 244 246 246 245 245 246 246 247 247 247 247 246 246 248 248 247 247 248 248 249 249 249 249 248 248 250 250 249 249 250 250 251 251 251 251 250 250 252 252 251 251 252 252 253 253 253 253 252 252 254 254 253 253 254 254 255 255 255 255 254 254 256 256 257 257 258 258 259 259 259 259 258 258 260 260 261 261 262 262 263 263 263 263 262 262 264 264 265 265 266 266 267 267 267 267 266 266 268 268 267 267 268 268 269 269 269 269 268 268 270 270 269 269 270 270 271 271 271 271 270 270 272 272 271 271 272 272 273 273 273 273 272 272 274 274 273 273 274 274 275 275 275 275 274 274 276 276 275 275 276 276 277 277 277 277 276 276 278 278 277 277 278 278 279 279 279 279 278 278 280 280 279 279 280 280 281 281 281 281 280 280 282 282 281 281 282 282 283 283 283 283 282 282 284 284 283 283 284 284 285 285 285 285 284 284 286 286 285 285 286 286 287 287 287 287 286 286 288 288 289 289 290 290 291 291 291 291 290 290 292 292</p>
				</triangles>
			</mesh>
		</geometry>
	</library_geometries>
	<library_nodes>
		<node id="_00031224166_v_70_2_kanten1_Proto">
			<instance_geometry url="#_00031224166_v_70_2_kanten1Geom">
				<bind_material>
					<technique_common>
						<instance_material symbol="MaterialAFAFAF" target="#ColorAFAFAF"/>
					</technique_common>
				</bind_material>
			</instance_geometry>
		</node>
	</library_nodes>
	<library_materials>
		<material id="ColorAFAFAF">
			<instance_effect url="#effectAFAFAF-fx"/>
		</material>
	</library_materials>
	<library_effects>
		<effect id="effectAFAFAF-fx">
			<profile_COMMON>
				<technique sid="common">
					<phong>
						<emission>
							<color>0.00000000 0.00000000 0.00000000 1.00000000</color>
						</emission>
						<ambient>
							<color>0.00000000 0.00000000 0.00000000 1.00000000</color>
						</ambient>
						<diffuse>
							<color>0.69000000 0.69000000 0.69000000 1.00000000</color>
						</diffuse>
						<specular>
							<color>0.50000000 0.50000000 0.50000000 1.00000000</color>
						</specular>
						<shininess>
							<float>16.00000000</float>
						</shininess>
						<reflective>
							<color>0.00000000 0.00000000 0.00000000 1.00000000</color>
						</reflective>
						<reflectivity>
							<float>0.50000000</float>
						</reflectivity>
						<transparent opaque="RGB_ZERO">
							<color>0.00000000 0.00000000 0.00000000 1.00000000</color>
						</transparent>
						<transparency>
							<float>1.00000000</float>
						</transparency>
						<index_of_refraction>
							<float>1.00000000</float>
						</index_of_refraction>
					</phong>
				</technique>
				<extra>
					<technique profile="GOOGLEEARTH">
						<double_sided>1</double_sided>
					</technique>
				</extra>
			</profile_COMMON>
		</effect>
	</library_effects>
	<scene>
		<instance_visual_scene url="#jtScene"/>
	</scene>
</COLLADA>
